%YAML 1.1
%TAG !u! tag:unity3d.com,2011:
--- !u!114 &359821226
MonoBehaviour:
  m_ObjectHideFlags: 0
  m_CorrespondingSourceObject: {fileID: 0}
  m_PrefabInstance: {fileID: 0}
  m_PrefabAsset: {fileID: 0}
  m_GameObject: {fileID: 6645004495437873312}
  m_Enabled: 1
  m_EditorHideFlags: 0
  m_Script: {fileID: 11500000, guid: 8abe6344b7148db4687d3c84e7712904, type: 3}
  m_Name: 
  m_EditorClassIdentifier: 
  HealthBarType: 1
  TimeScale: 0
  HealthBarPrefab: {fileID: 0}
  Size: {x: 1, y: 0.2}
  BackgroundPadding: {x: 0.01, y: 0.01}
  ForegroundColor:
    serializedVersion: 2
    key0: {r: 1, g: 0.09411765, b: 0, a: 1}
    key1: {r: 1, g: 0.09411765, b: 0, a: 1}
    key2: {r: 0, g: 0, b: 0, a: 0}
    key3: {r: 0, g: 0, b: 0, a: 0}
    key4: {r: 0, g: 0, b: 0, a: 0}
    key5: {r: 0, g: 0, b: 0, a: 0}
    key6: {r: 0, g: 0, b: 0, a: 0}
    key7: {r: 0, g: 0, b: 0, a: 0}
    ctime0: 0
    ctime1: 65535
    ctime2: 0
    ctime3: 0
    ctime4: 0
    ctime5: 0
    ctime6: 0
    ctime7: 0
    atime0: 0
    atime1: 65535
    atime2: 0
    atime3: 0
    atime4: 0
    atime5: 0
    atime6: 0
    atime7: 0
    m_Mode: 0
    m_NumColorKeys: 2
    m_NumAlphaKeys: 2
  DelayedColor:
    serializedVersion: 2
    key0: {r: 1, g: 0.64705884, b: 0, a: 1}
    key1: {r: 1, g: 0.64705884, b: 0, a: 1}
    key2: {r: 0, g: 0, b: 0, a: 0}
    key3: {r: 0, g: 0, b: 0, a: 0}
    key4: {r: 0, g: 0, b: 0, a: 0}
    key5: {r: 0, g: 0, b: 0, a: 0}
    key6: {r: 0, g: 0, b: 0, a: 0}
    key7: {r: 0, g: 0, b: 0, a: 0}
    ctime0: 0
    ctime1: 65535
    ctime2: 0
    ctime3: 0
    ctime4: 0
    ctime5: 0
    ctime6: 0
    ctime7: 0
    atime0: 0
    atime1: 65535
    atime2: 0
    atime3: 0
    atime4: 0
    atime5: 0
    atime6: 0
    atime7: 0
    m_Mode: 0
    m_NumColorKeys: 2
    m_NumAlphaKeys: 2
  BorderColor:
    serializedVersion: 2
    key0: {r: 0.98039216, g: 0.92156863, b: 0.84313726, a: 1}
    key1: {r: 0.98039216, g: 0.92156863, b: 0.84313726, a: 1}
    key2: {r: 0, g: 0, b: 0, a: 0}
    key3: {r: 0, g: 0, b: 0, a: 0}
    key4: {r: 0, g: 0, b: 0, a: 0}
    key5: {r: 0, g: 0, b: 0, a: 0}
    key6: {r: 0, g: 0, b: 0, a: 0}
    key7: {r: 0, g: 0, b: 0, a: 0}
    ctime0: 0
    ctime1: 65535
    ctime2: 0
    ctime3: 0
    ctime4: 0
    ctime5: 0
    ctime6: 0
    ctime7: 0
    atime0: 0
    atime1: 65535
    atime2: 0
    atime3: 0
    atime4: 0
    atime5: 0
    atime6: 0
    atime7: 0
    m_Mode: 0
    m_NumColorKeys: 2
    m_NumAlphaKeys: 2
  BackgroundColor:
    serializedVersion: 2
    key0: {r: 0, g: 0, b: 0, a: 1}
    key1: {r: 0, g: 0, b: 0, a: 1}
    key2: {r: 0, g: 0, b: 0, a: 0}
    key3: {r: 0, g: 0, b: 0, a: 0}
    key4: {r: 0, g: 0, b: 0, a: 0}
    key5: {r: 0, g: 0, b: 0, a: 0}
    key6: {r: 0, g: 0, b: 0, a: 0}
    key7: {r: 0, g: 0, b: 0, a: 0}
    ctime0: 0
    ctime1: 65535
    ctime2: 0
    ctime3: 0
    ctime4: 0
    ctime5: 0
    ctime6: 0
    ctime7: 0
    atime0: 0
    atime1: 65535
    atime2: 0
    atime3: 0
    atime4: 0
    atime5: 0
    atime6: 0
    atime7: 0
    m_Mode: 0
    m_NumColorKeys: 2
    m_NumAlphaKeys: 2
  SortingLayerName: UI
  Delay: 0.5
  LerpFrontBar: 1
  LerpFrontBarSpeed: 15
  LerpDelayedBar: 1
  LerpDelayedBarSpeed: 15
  BumpScaleOnChange: 1
  BumpDuration: 0.2
  BumpAnimationCurve:
    serializedVersion: 2
    m_Curve:
    - serializedVersion: 3
      time: 0
      value: 1
      inSlope: 0
      outSlope: 0
      tangentMode: 0
      weightedMode: 0
      inWeight: 0
      outWeight: 0
    - serializedVersion: 3
      time: 1
      value: 1
      inSlope: 0
      outSlope: 0
      tangentMode: 0
      weightedMode: 0
      inWeight: 0
      outWeight: 0
    m_PreInfinity: 2
    m_PostInfinity: 2
    m_RotationOrder: 4
  FollowTargetMode: 0
  NestDrawnHealthBar: 0
  InstantiatedOnDeath: {fileID: 0}
  HealthBarOffset: {x: 0, y: 5, z: 0}
  AlwaysVisible: 0
  DisplayDurationOnHit: 2
  HideBarAtZero: 1
  HideBarAtZeroDelay: 1
--- !u!1001 &5499579472199720793
PrefabInstance:
  m_ObjectHideFlags: 0
  serializedVersion: 2
  m_Modification:
    m_TransformParent: {fileID: 0}
    m_Modifications:
    - target: {fileID: 1181528622147330019, guid: 163e0bfc71dba45139dd145ba3714961,
        type: 3}
      propertyPath: m_RootOrder
      value: 0
      objectReference: {fileID: 0}
    - target: {fileID: 1181528622147330019, guid: 163e0bfc71dba45139dd145ba3714961,
        type: 3}
      propertyPath: m_LocalPosition.x
      value: 116.957275
      objectReference: {fileID: 0}
    - target: {fileID: 1181528622147330019, guid: 163e0bfc71dba45139dd145ba3714961,
        type: 3}
      propertyPath: m_LocalPosition.y
      value: -2.41
      objectReference: {fileID: 0}
    - target: {fileID: 1181528622147330019, guid: 163e0bfc71dba45139dd145ba3714961,
        type: 3}
      propertyPath: m_LocalPosition.z
      value: -0.97399426
      objectReference: {fileID: 0}
    - target: {fileID: 1181528622147330019, guid: 163e0bfc71dba45139dd145ba3714961,
        type: 3}
      propertyPath: m_LocalRotation.w
      value: 1
      objectReference: {fileID: 0}
    - target: {fileID: 1181528622147330019, guid: 163e0bfc71dba45139dd145ba3714961,
        type: 3}
      propertyPath: m_LocalRotation.x
      value: 0
      objectReference: {fileID: 0}
    - target: {fileID: 1181528622147330019, guid: 163e0bfc71dba45139dd145ba3714961,
        type: 3}
      propertyPath: m_LocalRotation.y
      value: 0
      objectReference: {fileID: 0}
    - target: {fileID: 1181528622147330019, guid: 163e0bfc71dba45139dd145ba3714961,
        type: 3}
      propertyPath: m_LocalRotation.z
      value: 0
      objectReference: {fileID: 0}
    - target: {fileID: 1181528622147330019, guid: 163e0bfc71dba45139dd145ba3714961,
        type: 3}
      propertyPath: m_LocalEulerAnglesHint.x
      value: 0
      objectReference: {fileID: 0}
    - target: {fileID: 1181528622147330019, guid: 163e0bfc71dba45139dd145ba3714961,
        type: 3}
      propertyPath: m_LocalEulerAnglesHint.y
      value: 0
      objectReference: {fileID: 0}
    - target: {fileID: 1181528622147330019, guid: 163e0bfc71dba45139dd145ba3714961,
        type: 3}
      propertyPath: m_LocalEulerAnglesHint.z
      value: 0
      objectReference: {fileID: 0}
    - target: {fileID: 1181528622147330020, guid: 163e0bfc71dba45139dd145ba3714961,
        type: 3}
      propertyPath: States.Array.data[4].Transitions.array.Array.size
      value: 1
      objectReference: {fileID: 0}
    - target: {fileID: 1181528622147330041, guid: 163e0bfc71dba45139dd145ba3714961,
        type: 3}
      propertyPath: m_Name
      value: FlowerFairy(old) Variant
      objectReference: {fileID: 0}
    - target: {fileID: 1181528622147330041, guid: 163e0bfc71dba45139dd145ba3714961,
        type: 3}
      propertyPath: m_IsActive
      value: 1
      objectReference: {fileID: 0}
    - target: {fileID: 1181528622147330042, guid: 163e0bfc71dba45139dd145ba3714961,
        type: 3}
      propertyPath: InitialWeapon
      value: 
      objectReference: {fileID: 9167492412781481136, guid: 79205006291b04307b9e483002501a4a,
        type: 3}
    - target: {fileID: 1181528622147330045, guid: 163e0bfc71dba45139dd145ba3714961,
        type: 3}
      propertyPath: Label
      value: 1 sec
      objectReference: {fileID: 0}
    - target: {fileID: 1181528622147330045, guid: 163e0bfc71dba45139dd145ba3714961,
        type: 3}
      propertyPath: AfterTimeMax
      value: 1
      objectReference: {fileID: 0}
    - target: {fileID: 1181528622147330045, guid: 163e0bfc71dba45139dd145ba3714961,
        type: 3}
      propertyPath: AfterTimeMin
      value: 1
      objectReference: {fileID: 0}
    - target: {fileID: 1181528623774625561, guid: 163e0bfc71dba45139dd145ba3714961,
        type: 3}
      propertyPath: m_KeepAnimatorControllerStateOnDisable
      value: 1
      objectReference: {fileID: 0}
    m_RemovedComponents: []
  m_SourcePrefab: {fileID: 100100000, guid: 163e0bfc71dba45139dd145ba3714961, type: 3}
--- !u!1 &6645004495437873312 stripped
GameObject:
  m_CorrespondingSourceObject: {fileID: 1181528622147330041, guid: 163e0bfc71dba45139dd145ba3714961,
    type: 3}
  m_PrefabInstance: {fileID: 5499579472199720793}
  m_PrefabAsset: {fileID: 0}
