Base path: '/Applications/Unity/Hub/Editor/2020.3.16f1/Unity.app/Contents', plugins path '/Applications/Unity/Hub/Editor/2020.3.16f1/Unity.app/Contents/PlaybackEngines'
Cmd: initializeCompiler


Cmd: initializeCompiler

Unhandled exception: Protocol error - failed to read magic number (error -2147483644, transferred 0/4)

Quitting shader compiler process
