%YAML 1.1
%TAG !u! tag:unity3d.com,2011:
--- !u!1 &4939062114983114418
GameObject:
  m_ObjectHideFlags: 0
  m_CorrespondingSourceObject: {fileID: 0}
  m_PrefabInstance: {fileID: 0}
  m_PrefabAsset: {fileID: 0}
  serializedVersion: 6
  m_Component:
  - component: {fileID: 6669949030240941417}
  - component: {fileID: 5042194432965741300}
  - component: {fileID: 2230913035541194396}
  m_Layer: 31
  m_Name: Layer1
  m_TagString: Untagged
  m_Icon: {fileID: 0}
  m_NavMeshLayer: 0
  m_StaticEditorFlags: 0
  m_IsActive: 1
--- !u!4 &6669949030240941417
Transform:
  m_ObjectHideFlags: 0
  m_CorrespondingSourceObject: {fileID: 0}
  m_PrefabInstance: {fileID: 0}
  m_PrefabAsset: {fileID: 0}
  m_GameObject: {fileID: 4939062114983114418}
  m_LocalRotation: {x: -0, y: -0, z: -0, w: 1}
  m_LocalPosition: {x: 0, y: 0, z: 0}
  m_LocalScale: {x: 1, y: 1, z: 1}
  m_Children: []
  m_Father: {fileID: 6186006988015877292}
  m_RootOrder: 0
  m_LocalEulerAnglesHint: {x: 0, y: 0, z: 0}
--- !u!1839735485 &5042194432965741300
Tilemap:
  m_ObjectHideFlags: 0
  m_CorrespondingSourceObject: {fileID: 0}
  m_PrefabInstance: {fileID: 0}
  m_PrefabAsset: {fileID: 0}
  m_GameObject: {fileID: 4939062114983114418}
  m_Enabled: 1
  m_Tiles:
  - first: {x: -4, y: -5, z: 0}
    second:
      serializedVersion: 2
      m_TileIndex: 42
      m_TileSpriteIndex: 42
      m_TileMatrixIndex: 0
      m_TileColorIndex: 0
      m_TileObjectToInstantiateIndex: 65535
      m_AllTileFlags: 1073741825
  - first: {x: -6, y: -4, z: 0}
    second:
      serializedVersion: 2
      m_TileIndex: 19
      m_TileSpriteIndex: 43
      m_TileMatrixIndex: 0
      m_TileColorIndex: 0
      m_TileObjectToInstantiateIndex: 65535
      m_AllTileFlags: 1073741825
  - first: {x: -3, y: -4, z: 0}
    second:
      serializedVersion: 2
      m_TileIndex: 36
      m_TileSpriteIndex: 36
      m_TileMatrixIndex: 0
      m_TileColorIndex: 0
      m_TileObjectToInstantiateIndex: 65535
      m_AllTileFlags: 1073741825
  - first: {x: -7, y: -3, z: 0}
    second:
      serializedVersion: 2
      m_TileIndex: 22
      m_TileSpriteIndex: 22
      m_TileMatrixIndex: 0
      m_TileColorIndex: 0
      m_TileObjectToInstantiateIndex: 65535
      m_AllTileFlags: 1073741825
  - first: {x: -6, y: -3, z: 0}
    second:
      serializedVersion: 2
      m_TileIndex: 21
      m_TileSpriteIndex: 21
      m_TileMatrixIndex: 0
      m_TileColorIndex: 0
      m_TileObjectToInstantiateIndex: 65535
      m_AllTileFlags: 1073741825
  - first: {x: -5, y: -3, z: 0}
    second:
      serializedVersion: 2
      m_TileIndex: 17
      m_TileSpriteIndex: 19
      m_TileMatrixIndex: 0
      m_TileColorIndex: 0
      m_TileObjectToInstantiateIndex: 65535
      m_AllTileFlags: 1073741825
  - first: {x: -4, y: -3, z: 0}
    second:
      serializedVersion: 2
      m_TileIndex: 28
      m_TileSpriteIndex: 28
      m_TileMatrixIndex: 0
      m_TileColorIndex: 0
      m_TileObjectToInstantiateIndex: 65535
      m_AllTileFlags: 1073741825
  - first: {x: -3, y: -3, z: 0}
    second:
      serializedVersion: 2
      m_TileIndex: 29
      m_TileSpriteIndex: 29
      m_TileMatrixIndex: 0
      m_TileColorIndex: 0
      m_TileObjectToInstantiateIndex: 65535
      m_AllTileFlags: 1073741825
  - first: {x: -2, y: -3, z: 0}
    second:
      serializedVersion: 2
      m_TileIndex: 30
      m_TileSpriteIndex: 30
      m_TileMatrixIndex: 0
      m_TileColorIndex: 0
      m_TileObjectToInstantiateIndex: 65535
      m_AllTileFlags: 1073741825
  - first: {x: -1, y: -3, z: 0}
    second:
      serializedVersion: 2
      m_TileIndex: 31
      m_TileSpriteIndex: 37
      m_TileMatrixIndex: 0
      m_TileColorIndex: 0
      m_TileObjectToInstantiateIndex: 65535
      m_AllTileFlags: 1073741825
  - first: {x: 0, y: -3, z: 0}
    second:
      serializedVersion: 2
      m_TileIndex: 32
      m_TileSpriteIndex: 38
      m_TileMatrixIndex: 0
      m_TileColorIndex: 0
      m_TileObjectToInstantiateIndex: 65535
      m_AllTileFlags: 1073741825
  - first: {x: 1, y: -3, z: 0}
    second:
      serializedVersion: 2
      m_TileIndex: 33
      m_TileSpriteIndex: 40
      m_TileMatrixIndex: 0
      m_TileColorIndex: 0
      m_TileObjectToInstantiateIndex: 65535
      m_AllTileFlags: 1073741825
  - first: {x: 4, y: -3, z: 0}
    second:
      serializedVersion: 2
      m_TileIndex: 45
      m_TileSpriteIndex: 47
      m_TileMatrixIndex: 0
      m_TileColorIndex: 0
      m_TileObjectToInstantiateIndex: 65535
      m_AllTileFlags: 1073741825
  - first: {x: 5, y: -3, z: 0}
    second:
      serializedVersion: 2
      m_TileIndex: 44
      m_TileSpriteIndex: 46
      m_TileMatrixIndex: 0
      m_TileColorIndex: 0
      m_TileObjectToInstantiateIndex: 65535
      m_AllTileFlags: 1073741825
  - first: {x: 6, y: -3, z: 0}
    second:
      serializedVersion: 2
      m_TileIndex: 43
      m_TileSpriteIndex: 45
      m_TileMatrixIndex: 0
      m_TileColorIndex: 0
      m_TileObjectToInstantiateIndex: 65535
      m_AllTileFlags: 1073741825
  - first: {x: -6, y: -2, z: 0}
    second:
      serializedVersion: 2
      m_TileIndex: 18
      m_TileSpriteIndex: 16
      m_TileMatrixIndex: 0
      m_TileColorIndex: 0
      m_TileObjectToInstantiateIndex: 65535
      m_AllTileFlags: 1073741825
  - first: {x: -1, y: -2, z: 0}
    second:
      serializedVersion: 2
      m_TileIndex: 24
      m_TileSpriteIndex: 24
      m_TileMatrixIndex: 0
      m_TileColorIndex: 0
      m_TileObjectToInstantiateIndex: 65535
      m_AllTileFlags: 1073741825
  - first: {x: 1, y: -2, z: 0}
    second:
      serializedVersion: 2
      m_TileIndex: 26
      m_TileSpriteIndex: 33
      m_TileMatrixIndex: 0
      m_TileColorIndex: 0
      m_TileObjectToInstantiateIndex: 65535
      m_AllTileFlags: 1073741825
  - first: {x: 2, y: -2, z: 0}
    second:
      serializedVersion: 2
      m_TileIndex: 27
      m_TileSpriteIndex: 34
      m_TileMatrixIndex: 0
      m_TileColorIndex: 0
      m_TileObjectToInstantiateIndex: 65535
      m_AllTileFlags: 1073741825
  - first: {x: 4, y: -2, z: 0}
    second:
      serializedVersion: 2
      m_TileIndex: 41
      m_TileSpriteIndex: 41
      m_TileMatrixIndex: 0
      m_TileColorIndex: 0
      m_TileObjectToInstantiateIndex: 65535
      m_AllTileFlags: 1073741825
  - first: {x: 5, y: -2, z: 0}
    second:
      serializedVersion: 2
      m_TileIndex: 46
      m_TileSpriteIndex: 42
      m_TileMatrixIndex: 0
      m_TileColorIndex: 0
      m_TileObjectToInstantiateIndex: 65535
      m_AllTileFlags: 1073741825
  - first: {x: -6, y: -1, z: 0}
    second:
      serializedVersion: 2
      m_TileIndex: 6
      m_TileSpriteIndex: 15
      m_TileMatrixIndex: 0
      m_TileColorIndex: 0
      m_TileObjectToInstantiateIndex: 65535
      m_AllTileFlags: 1073741825
  - first: {x: -5, y: -1, z: 0}
    second:
      serializedVersion: 2
      m_TileIndex: 7
      m_TileSpriteIndex: 8
      m_TileMatrixIndex: 0
      m_TileColorIndex: 0
      m_TileObjectToInstantiateIndex: 65535
      m_AllTileFlags: 1073741825
  - first: {x: -4, y: -1, z: 0}
    second:
      serializedVersion: 2
      m_TileIndex: 8
      m_TileSpriteIndex: 9
      m_TileMatrixIndex: 0
      m_TileColorIndex: 0
      m_TileObjectToInstantiateIndex: 65535
      m_AllTileFlags: 1073741825
  - first: {x: -3, y: -1, z: 0}
    second:
      serializedVersion: 2
      m_TileIndex: 15
      m_TileSpriteIndex: 17
      m_TileMatrixIndex: 0
      m_TileColorIndex: 0
      m_TileObjectToInstantiateIndex: 65535
      m_AllTileFlags: 1073741825
  - first: {x: -2, y: -1, z: 0}
    second:
      serializedVersion: 2
      m_TileIndex: 16
      m_TileSpriteIndex: 18
      m_TileMatrixIndex: 0
      m_TileColorIndex: 0
      m_TileObjectToInstantiateIndex: 65535
      m_AllTileFlags: 1073741825
  - first: {x: 2, y: -1, z: 0}
    second:
      serializedVersion: 2
      m_TileIndex: 20
      m_TileSpriteIndex: 31
      m_TileMatrixIndex: 0
      m_TileColorIndex: 0
      m_TileObjectToInstantiateIndex: 65535
      m_AllTileFlags: 1073741825
  - first: {x: 4, y: -1, z: 0}
    second:
      serializedVersion: 2
      m_TileIndex: 37
      m_TileSpriteIndex: 35
      m_TileMatrixIndex: 0
      m_TileColorIndex: 0
      m_TileObjectToInstantiateIndex: 65535
      m_AllTileFlags: 1073741825
  - first: {x: 6, y: -1, z: 0}
    second:
      serializedVersion: 2
      m_TileIndex: 47
      m_TileSpriteIndex: 44
      m_TileMatrixIndex: 0
      m_TileColorIndex: 0
      m_TileObjectToInstantiateIndex: 65535
      m_AllTileFlags: 1073741825
  - first: {x: -6, y: 0, z: 0}
    second:
      serializedVersion: 2
      m_TileIndex: 3
      m_TileSpriteIndex: 4
      m_TileMatrixIndex: 0
      m_TileColorIndex: 0
      m_TileObjectToInstantiateIndex: 65535
      m_AllTileFlags: 1073741825
  - first: {x: -5, y: 0, z: 0}
    second:
      serializedVersion: 2
      m_TileIndex: 9
      m_TileSpriteIndex: 7
      m_TileMatrixIndex: 0
      m_TileColorIndex: 0
      m_TileObjectToInstantiateIndex: 65535
      m_AllTileFlags: 1073741825
  - first: {x: -4, y: 0, z: 0}
    second:
      serializedVersion: 2
      m_TileIndex: 10
      m_TileSpriteIndex: 10
      m_TileMatrixIndex: 0
      m_TileColorIndex: 0
      m_TileObjectToInstantiateIndex: 65535
      m_AllTileFlags: 1073741825
  - first: {x: -3, y: 0, z: 0}
    second:
      serializedVersion: 2
      m_TileIndex: 13
      m_TileSpriteIndex: 25
      m_TileMatrixIndex: 0
      m_TileColorIndex: 0
      m_TileObjectToInstantiateIndex: 65535
      m_AllTileFlags: 1073741825
  - first: {x: -1, y: 0, z: 0}
    second:
      serializedVersion: 2
      m_TileIndex: 12
      m_TileSpriteIndex: 14
      m_TileMatrixIndex: 0
      m_TileColorIndex: 0
      m_TileObjectToInstantiateIndex: 65535
      m_AllTileFlags: 1073741825
  - first: {x: 0, y: 0, z: 0}
    second:
      serializedVersion: 2
      m_TileIndex: 11
      m_TileSpriteIndex: 13
      m_TileMatrixIndex: 0
      m_TileColorIndex: 0
      m_TileObjectToInstantiateIndex: 65535
      m_AllTileFlags: 1073741825
  - first: {x: 3, y: 0, z: 0}
    second:
      serializedVersion: 2
      m_TileIndex: 40
      m_TileSpriteIndex: 23
      m_TileMatrixIndex: 0
      m_TileColorIndex: 0
      m_TileObjectToInstantiateIndex: 65535
      m_AllTileFlags: 1073741825
  - first: {x: 4, y: 0, z: 0}
    second:
      serializedVersion: 2
      m_TileIndex: 39
      m_TileSpriteIndex: 39
      m_TileMatrixIndex: 0
      m_TileColorIndex: 0
      m_TileObjectToInstantiateIndex: 65535
      m_AllTileFlags: 1073741825
  - first: {x: 5, y: 0, z: 0}
    second:
      serializedVersion: 2
      m_TileIndex: 38
      m_TileSpriteIndex: 32
      m_TileMatrixIndex: 0
      m_TileColorIndex: 0
      m_TileObjectToInstantiateIndex: 65535
      m_AllTileFlags: 1073741825
  - first: {x: -6, y: 1, z: 0}
    second:
      serializedVersion: 2
      m_TileIndex: 0
      m_TileSpriteIndex: 1
      m_TileMatrixIndex: 0
      m_TileColorIndex: 0
      m_TileObjectToInstantiateIndex: 65535
      m_AllTileFlags: 1073741825
  - first: {x: -5, y: 1, z: 0}
    second:
      serializedVersion: 2
      m_TileIndex: 1
      m_TileSpriteIndex: 2
      m_TileMatrixIndex: 0
      m_TileColorIndex: 0
      m_TileObjectToInstantiateIndex: 65535
      m_AllTileFlags: 1073741825
  - first: {x: -4, y: 1, z: 0}
    second:
      serializedVersion: 2
      m_TileIndex: 2
      m_TileSpriteIndex: 3
      m_TileMatrixIndex: 0
      m_TileColorIndex: 0
      m_TileObjectToInstantiateIndex: 65535
      m_AllTileFlags: 1073741825
  - first: {x: -3, y: 1, z: 0}
    second:
      serializedVersion: 2
      m_TileIndex: 34
      m_TileSpriteIndex: 11
      m_TileMatrixIndex: 0
      m_TileColorIndex: 0
      m_TileObjectToInstantiateIndex: 65535
      m_AllTileFlags: 1073741825
  - first: {x: -2, y: 1, z: 0}
    second:
      serializedVersion: 2
      m_TileIndex: 14
      m_TileSpriteIndex: 12
      m_TileMatrixIndex: 0
      m_TileColorIndex: 0
      m_TileObjectToInstantiateIndex: 65535
      m_AllTileFlags: 1073741825
  - first: {x: -1, y: 1, z: 0}
    second:
      serializedVersion: 2
      m_TileIndex: 5
      m_TileSpriteIndex: 6
      m_TileMatrixIndex: 0
      m_TileColorIndex: 0
      m_TileObjectToInstantiateIndex: 65535
      m_AllTileFlags: 1073741825
  - first: {x: 0, y: 1, z: 0}
    second:
      serializedVersion: 2
      m_TileIndex: 4
      m_TileSpriteIndex: 5
      m_TileMatrixIndex: 0
      m_TileColorIndex: 0
      m_TileObjectToInstantiateIndex: 65535
      m_AllTileFlags: 1073741825
  - first: {x: 3, y: 1, z: 0}
    second:
      serializedVersion: 2
      m_TileIndex: 25
      m_TileSpriteIndex: 26
      m_TileMatrixIndex: 0
      m_TileColorIndex: 0
      m_TileObjectToInstantiateIndex: 65535
      m_AllTileFlags: 1073741825
  - first: {x: 4, y: 1, z: 0}
    second:
      serializedVersion: 2
      m_TileIndex: 23
      m_TileSpriteIndex: 20
      m_TileMatrixIndex: 0
      m_TileColorIndex: 0
      m_TileObjectToInstantiateIndex: 65535
      m_AllTileFlags: 1073741825
  - first: {x: 6, y: 1, z: 0}
    second:
      serializedVersion: 2
      m_TileIndex: 35
      m_TileSpriteIndex: 27
      m_TileMatrixIndex: 0
      m_TileColorIndex: 0
      m_TileObjectToInstantiateIndex: 65535
      m_AllTileFlags: 1073741825
  m_AnimatedTiles: {}
  m_TileAssetArray:
  - m_RefCount: 1
    m_Data: {fileID: 11400000, guid: 8193e0c6805c346e9a3c64505c4c3aca, type: 2}
  - m_RefCount: 1
    m_Data: {fileID: 11400000, guid: eb48034c42ea84d1299428ce77433383, type: 2}
  - m_RefCount: 1
    m_Data: {fileID: 11400000, guid: 16589c40571b2403898bbb9e939399d1, type: 2}
  - m_RefCount: 1
    m_Data: {fileID: 11400000, guid: 76d021cc8e4624e6c90e1bf72d74cdb1, type: 2}
  - m_RefCount: 1
    m_Data: {fileID: 11400000, guid: aa510b530cbea470b9f23318a2bbc8e5, type: 2}
  - m_RefCount: 1
    m_Data: {fileID: 11400000, guid: 5d64a051f155747baa5c7415bd476268, type: 2}
  - m_RefCount: 1
    m_Data: {fileID: 11400000, guid: 9c4dada39d92f4d1f9d15a46ef466538, type: 2}
  - m_RefCount: 1
    m_Data: {fileID: 11400000, guid: fac3cc46b391e4f7880a3a4f222e2102, type: 2}
  - m_RefCount: 1
    m_Data: {fileID: 11400000, guid: 98d07fd0d1f0949efa51bc610b55cab2, type: 2}
  - m_RefCount: 1
    m_Data: {fileID: 11400000, guid: c8b45c48c8b02497891fc82da2299af9, type: 2}
  - m_RefCount: 1
    m_Data: {fileID: 11400000, guid: 6172dec68071a49ce87dd5a8be8ef1bd, type: 2}
  - m_RefCount: 1
    m_Data: {fileID: 11400000, guid: 6732818343e1c4217b5d85cd4a1971b2, type: 2}
  - m_RefCount: 1
    m_Data: {fileID: 11400000, guid: 7c41a3d6669ae488d9d412337940d762, type: 2}
  - m_RefCount: 1
    m_Data: {fileID: 11400000, guid: 28690726dd7064268b180efb86f1d3ba, type: 2}
  - m_RefCount: 1
    m_Data: {fileID: 11400000, guid: 89fcabe74145749c5ac2facf2941ce59, type: 2}
  - m_RefCount: 1
    m_Data: {fileID: 11400000, guid: 8bd05bddfdec446f8ac4c522dedb8d03, type: 2}
  - m_RefCount: 1
    m_Data: {fileID: 11400000, guid: 5000d24ea7e91441386cd9af7d1a2b02, type: 2}
  - m_RefCount: 1
    m_Data: {fileID: 11400000, guid: 904f5d409b61843e29a57c326bdd51ec, type: 2}
  - m_RefCount: 1
    m_Data: {fileID: 11400000, guid: bf333ba80de8349eca4decc86473f9ef, type: 2}
  - m_RefCount: 1
    m_Data: {fileID: 11400000, guid: cc2670874ed104c0c98bd01632daf132, type: 2}
  - m_RefCount: 1
    m_Data: {fileID: 11400000, guid: 27f8b20158fa2453c9d608757730f51b, type: 2}
  - m_RefCount: 1
    m_Data: {fileID: 11400000, guid: 83acf350e48e64d36921eb127bb04259, type: 2}
  - m_RefCount: 1
    m_Data: {fileID: 11400000, guid: 2c88445f4dc3a423ca7e81907338dfe3, type: 2}
  - m_RefCount: 1
    m_Data: {fileID: 11400000, guid: 786bbe04af1a7452cb41c1b1dc6973cd, type: 2}
  - m_RefCount: 1
    m_Data: {fileID: 11400000, guid: a76a2601963b241a587964ca36e9020e, type: 2}
  - m_RefCount: 1
    m_Data: {fileID: 11400000, guid: a53a4589c045143ecb5eecd5b73c0a17, type: 2}
  - m_RefCount: 1
    m_Data: {fileID: 11400000, guid: 526616463a373473a85aa29d4047b85b, type: 2}
  - m_RefCount: 1
    m_Data: {fileID: 11400000, guid: 70a4f778f81d54f80af1e1960f8565d4, type: 2}
  - m_RefCount: 1
    m_Data: {fileID: 11400000, guid: ce9b81b066b0b4d6aa9a91370df4feff, type: 2}
  - m_RefCount: 1
    m_Data: {fileID: 11400000, guid: a1c1d89c7e500479bab8ac903075b6c3, type: 2}
  - m_RefCount: 1
    m_Data: {fileID: 11400000, guid: d0614a236940544e5bb7ba696e7ad264, type: 2}
  - m_RefCount: 1
    m_Data: {fileID: 11400000, guid: 89dd2e550718244239ceb5c409ce02c0, type: 2}
  - m_RefCount: 1
    m_Data: {fileID: 11400000, guid: 23d8bb417827d4858909a123b6c35c6a, type: 2}
  - m_RefCount: 1
    m_Data: {fileID: 11400000, guid: edbfff73a753a4b9dadb9c918d0e11c9, type: 2}
  - m_RefCount: 1
    m_Data: {fileID: 11400000, guid: aca6458b2804a47b9861cf2099c96640, type: 2}
  - m_RefCount: 1
    m_Data: {fileID: 11400000, guid: e2dc99f37a4e84497a3b40dcdc57f7d3, type: 2}
  - m_RefCount: 1
    m_Data: {fileID: 11400000, guid: f70f09b03f92e4ced994edba7c7c26f3, type: 2}
  - m_RefCount: 1
    m_Data: {fileID: 11400000, guid: 2e8ab284ceed548169b01e6f03857648, type: 2}
  - m_RefCount: 1
    m_Data: {fileID: 11400000, guid: 790db00ece04a474483dabd165a630ee, type: 2}
  - m_RefCount: 1
    m_Data: {fileID: 11400000, guid: f74b621583d5349c595685ee20e95017, type: 2}
  - m_RefCount: 1
    m_Data: {fileID: 11400000, guid: d3f821810dac04e1faba605c6a6f79a5, type: 2}
  - m_RefCount: 1
    m_Data: {fileID: 11400000, guid: 9f4708644c03a477b85df38ff4677327, type: 2}
  - m_RefCount: 1
    m_Data: {fileID: 11400000, guid: c7ff1a630dea84261aa9af49eb05db77, type: 2}
  - m_RefCount: 1
    m_Data: {fileID: 11400000, guid: 9d6c99524aa0f49a09faa8d0b05238c6, type: 2}
  - m_RefCount: 1
    m_Data: {fileID: 11400000, guid: 3cece44f689804221af139b40a361784, type: 2}
  - m_RefCount: 1
    m_Data: {fileID: 11400000, guid: f5de9e240091149cf9bd44f13a8abcc2, type: 2}
  - m_RefCount: 1
    m_Data: {fileID: 11400000, guid: 63dd15b0fa6c64e9a8da04ce1d184bdb, type: 2}
  - m_RefCount: 1
    m_Data: {fileID: 11400000, guid: 7fb44d5b9bc794c089a1180eab984abc, type: 2}
  m_TileSpriteArray:
  - m_RefCount: 0
    m_Data: {fileID: 0}
  - m_RefCount: 1
    m_Data: {fileID: 21300000, guid: 0a7b1f354a3574c77be308b463d38a9d, type: 3}
  - m_RefCount: 1
    m_Data: {fileID: 21300000, guid: d4908b3a2a8634932ba6f8a553b27fa6, type: 3}
  - m_RefCount: 1
    m_Data: {fileID: 21300000, guid: f3c156d453657475a874940b8ed3b5e9, type: 3}
  - m_RefCount: 1
    m_Data: {fileID: 21300000, guid: 19a61b7515d2e4e98aa9c1f76c90f336, type: 3}
  - m_RefCount: 1
    m_Data: {fileID: 21300000, guid: b8c8e72225fe14fbdaf2bcb58d797b31, type: 3}
  - m_RefCount: 1
    m_Data: {fileID: 21300000, guid: 6e53e20ceeec744d6a06ec68cd3086f2, type: 3}
  - m_RefCount: 1
    m_Data: {fileID: 21300000, guid: 66c365debf5674b619f4f15f1c310038, type: 3}
  - m_RefCount: 1
    m_Data: {fileID: 21300000, guid: 9331969fc756e49ecbdcab60fe8b1653, type: 3}
  - m_RefCount: 1
    m_Data: {fileID: 21300000, guid: 909dd1a58f2a34e0e940d067201023c1, type: 3}
  - m_RefCount: 1
    m_Data: {fileID: 21300000, guid: 77357e69a485a49fd8a9baa5dbb11bc5, type: 3}
  - m_RefCount: 1
    m_Data: {fileID: 21300000, guid: 1f7c85437179f40f48110cccfac338e4, type: 3}
  - m_RefCount: 1
    m_Data: {fileID: 21300000, guid: 73104b59e5e8f4436ab028f38d20ba9c, type: 3}
  - m_RefCount: 1
    m_Data: {fileID: 21300000, guid: 098dd8c8fedee4a218c28492b5d673d2, type: 3}
  - m_RefCount: 1
    m_Data: {fileID: 21300000, guid: 72dfc1664775943a4bc9df2f715daff8, type: 3}
  - m_RefCount: 1
    m_Data: {fileID: 21300000, guid: 32be76490c9384db4a862e53fb23bfb6, type: 3}
  - m_RefCount: 1
    m_Data: {fileID: 21300000, guid: dc48586cd55774cf98eec180643bd6eb, type: 3}
  - m_RefCount: 1
    m_Data: {fileID: 21300000, guid: f10cfbc6b53cc4e5eb4785074abf452a, type: 3}
  - m_RefCount: 1
    m_Data: {fileID: 21300000, guid: 54b9fe946d54c4d92951356ea72d649f, type: 3}
  - m_RefCount: 1
    m_Data: {fileID: 21300000, guid: 578d150ebc0034e96badaa029902e19b, type: 3}
  - m_RefCount: 1
    m_Data: {fileID: 21300000, guid: 0d05fd04c7d8d4ce18f002bcc39f82ec, type: 3}
  - m_RefCount: 1
    m_Data: {fileID: 21300000, guid: 07ad744f98e28476c9540a2f4b6bfadd, type: 3}
  - m_RefCount: 1
    m_Data: {fileID: 21300000, guid: c8d1b954d14fa4fd3bc757ac035802a3, type: 3}
  - m_RefCount: 1
    m_Data: {fileID: 21300000, guid: ab344b965ad68476ba8746e7ab2dec0b, type: 3}
  - m_RefCount: 1
    m_Data: {fileID: 21300000, guid: b85518472fa9f42cca306ea1d9f6309d, type: 3}
  - m_RefCount: 1
    m_Data: {fileID: 21300000, guid: ea9e36479fc3747a69dd121fb12afbf7, type: 3}
  - m_RefCount: 1
    m_Data: {fileID: 21300000, guid: ce65faa0ae87747818cbe8d0f790d3ed, type: 3}
  - m_RefCount: 1
    m_Data: {fileID: 21300000, guid: 30a576ed34fc3409790ccbddc6e6e9d8, type: 3}
  - m_RefCount: 1
    m_Data: {fileID: 21300000, guid: 5efbf3e2d8fdb43089cccf954a13f51d, type: 3}
  - m_RefCount: 1
    m_Data: {fileID: 21300000, guid: 73b5e86219fd24b2fad3daf543506a1c, type: 3}
  - m_RefCount: 1
    m_Data: {fileID: 21300000, guid: 8c01e5371e83c4388b1ff0e49efbb792, type: 3}
  - m_RefCount: 1
    m_Data: {fileID: 21300000, guid: be1633af2a5cf43f89c7a4f17633a7a1, type: 3}
  - m_RefCount: 1
    m_Data: {fileID: 21300000, guid: 0f58c84041257468cbb633ab1b35b908, type: 3}
  - m_RefCount: 1
    m_Data: {fileID: 21300000, guid: a09a3f5ffa49a4d99bea62443fece852, type: 3}
  - m_RefCount: 1
    m_Data: {fileID: 21300000, guid: f6f2a44d492834cfe99309cb31ae1e91, type: 3}
  - m_RefCount: 1
    m_Data: {fileID: 21300000, guid: fc824e92097cf46428547e249dccd61a, type: 3}
  - m_RefCount: 1
    m_Data: {fileID: 21300000, guid: 0e071cbd93cdf4d4998f1c4379a5ed1b, type: 3}
  - m_RefCount: 1
    m_Data: {fileID: 21300000, guid: c45a0f4c012bf4b7ca0e467f8b0e9095, type: 3}
  - m_RefCount: 1
    m_Data: {fileID: 21300000, guid: 9d81212c8e0e848c7b6ff7cb0f9a25c0, type: 3}
  - m_RefCount: 1
    m_Data: {fileID: 21300000, guid: cd8f866dbedc441afafe2419f6220f63, type: 3}
  - m_RefCount: 1
    m_Data: {fileID: 21300000, guid: 622a45e003d1a491694e20bc43c56c93, type: 3}
  - m_RefCount: 1
    m_Data: {fileID: 21300000, guid: 2e514925b5cb44364ae4ae2ccfd24a16, type: 3}
  - m_RefCount: 2
    m_Data: {fileID: 21300000, guid: 56f6d31c71e984719988e589d0a2ad23, type: 3}
  - m_RefCount: 1
    m_Data: {fileID: 21300000, guid: 61e4a05b7c8534a03a8cfafb1309385d, type: 3}
  - m_RefCount: 1
    m_Data: {fileID: 21300000, guid: 4cf9b4044bd494d719e954385f73018f, type: 3}
  - m_RefCount: 1
    m_Data: {fileID: 21300000, guid: 87982645e787f41e5ae98ee366e981d5, type: 3}
  - m_RefCount: 1
    m_Data: {fileID: 21300000, guid: 6e83425a56c6d4a5084ae2058e63171d, type: 3}
  - m_RefCount: 1
    m_Data: {fileID: 21300000, guid: f4740fbf25ecf4d58883b4a8a82bcd47, type: 3}
  m_TileMatrixArray:
  - m_RefCount: 48
    m_Data:
      e00: 1
      e01: 0
      e02: 0
      e03: 0
      e10: 0
      e11: 1
      e12: 0
      e13: 0
      e20: 0
      e21: 0
      e22: 1
      e23: 0
      e30: 0
      e31: 0
      e32: 0
      e33: 1
  m_TileColorArray:
  - m_RefCount: 48
    m_Data: {r: 1, g: 1, b: 1, a: 1}
  - m_RefCount: 0
    m_Data: {r: 0.8417818, g: 0.5391178, b: 0.5950994, a: 1}
  m_TileObjectToInstantiateArray: []
  m_AnimationFrameRate: 1
  m_Color: {r: 1, g: 1, b: 1, a: 1}
  m_Origin: {x: -7, y: -5, z: 0}
  m_Size: {x: 14, y: 7, z: 1}
  m_TileAnchor: {x: 0.5, y: 0.5, z: 0}
  m_TileOrientation: 0
  m_TileOrientationMatrix:
    e00: 1
    e01: 0
    e02: 0
    e03: 0
    e10: 0
    e11: 1
    e12: 0
    e13: 0
    e20: 0
    e21: 0
    e22: 1
    e23: 0
    e30: 0
    e31: 0
    e32: 0
    e33: 1
--- !u!483693784 &2230913035541194396
TilemapRenderer:
  m_ObjectHideFlags: 0
  m_CorrespondingSourceObject: {fileID: 0}
  m_PrefabInstance: {fileID: 0}
  m_PrefabAsset: {fileID: 0}
  m_GameObject: {fileID: 4939062114983114418}
  m_Enabled: 0
  m_CastShadows: 0
  m_ReceiveShadows: 0
  m_DynamicOccludee: 0
  m_MotionVectors: 1
  m_LightProbeUsage: 0
  m_ReflectionProbeUsage: 0
  m_RayTracingMode: 0
  m_RenderingLayerMask: 1
  m_RendererPriority: 0
  m_Materials:
  - {fileID: 2100000, guid: a97c105638bdf8b4a8650670310a4cd3, type: 2}
  m_StaticBatchInfo:
    firstSubMesh: 0
    subMeshCount: 0
  m_StaticBatchRoot: {fileID: 0}
  m_ProbeAnchor: {fileID: 0}
  m_LightProbeVolumeOverride: {fileID: 0}
  m_ScaleInLightmap: 1
  m_ReceiveGI: 1
  m_PreserveUVs: 0
  m_IgnoreNormalsForChartDetection: 0
  m_ImportantGI: 0
  m_StitchLightmapSeams: 1
  m_SelectedEditorRenderState: 0
  m_MinimumChartSize: 4
  m_AutoUVMaxDistance: 0.5
  m_AutoUVMaxAngle: 89
  m_LightmapParameters: {fileID: 0}
  m_SortingLayerID: 0
  m_SortingLayer: 0
  m_SortingOrder: 0
  m_ChunkSize: {x: 32, y: 32, z: 32}
  m_ChunkCullingBounds: {x: 0, y: 0, z: 0}
  m_MaxChunkCount: 16
  m_MaxFrameAge: 16
  m_SortOrder: 0
  m_Mode: 0
  m_DetectChunkCullingBounds: 0
  m_MaskInteraction: 0
--- !u!1 &6011763802479924966
GameObject:
  m_ObjectHideFlags: 0
  m_CorrespondingSourceObject: {fileID: 0}
  m_PrefabInstance: {fileID: 0}
  m_PrefabAsset: {fileID: 0}
  serializedVersion: 6
  m_Component:
  - component: {fileID: 6186006988015877292}
  - component: {fileID: 689708441415686366}
  m_Layer: 31
  m_Name: Forest
  m_TagString: Untagged
  m_Icon: {fileID: 0}
  m_NavMeshLayer: 0
  m_StaticEditorFlags: 0
  m_IsActive: 1
--- !u!4 &6186006988015877292
Transform:
  m_ObjectHideFlags: 0
  m_CorrespondingSourceObject: {fileID: 0}
  m_PrefabInstance: {fileID: 0}
  m_PrefabAsset: {fileID: 0}
  m_GameObject: {fileID: 6011763802479924966}
  m_LocalRotation: {x: 0, y: 0, z: 0, w: 1}
  m_LocalPosition: {x: 0, y: 0, z: 0}
  m_LocalScale: {x: 1, y: 1, z: 1}
  m_Children:
  - {fileID: 6669949030240941417}
  m_Father: {fileID: 0}
  m_RootOrder: 0
  m_LocalEulerAnglesHint: {x: 0, y: 0, z: 0}
--- !u!156049354 &689708441415686366
Grid:
  m_ObjectHideFlags: 0
  m_CorrespondingSourceObject: {fileID: 0}
  m_PrefabInstance: {fileID: 0}
  m_PrefabAsset: {fileID: 0}
  m_GameObject: {fileID: 6011763802479924966}
  m_Enabled: 1
  m_CellSize: {x: 1, y: 1, z: 0}
  m_CellGap: {x: 0, y: 0, z: 0}
  m_CellLayout: 0
  m_CellSwizzle: 0
--- !u!114 &8330418876931903602
MonoBehaviour:
  m_ObjectHideFlags: 0
  m_CorrespondingSourceObject: {fileID: 0}
  m_PrefabInstance: {fileID: 0}
  m_PrefabAsset: {fileID: 0}
  m_GameObject: {fileID: 0}
  m_Enabled: 1
  m_EditorHideFlags: 0
  m_Script: {fileID: 12395, guid: 0000000000000000e000000000000000, type: 0}
  m_Name: Palette Settings
  m_EditorClassIdentifier: 
  cellSizing: 0
