%YAML 1.1
%TAG !u! tag:unity3d.com,2011:
--- !u!1 &6274564527992424102
GameObject:
  m_ObjectHideFlags: 0
  m_CorrespondingSourceObject: {fileID: 0}
  m_PrefabInstance: {fileID: 0}
  m_PrefabAsset: {fileID: 0}
  serializedVersion: 6
  m_Component:
  - component: {fileID: 6274564527992424100}
  - component: {fileID: 6274564527992424101}
  - component: {fileID: 6274564527992424099}
  m_Layer: 0
  m_Name: LaserBase
  m_TagString: Untagged
  m_Icon: {fileID: 0}
  m_NavMeshLayer: 0
  m_StaticEditorFlags: 0
  m_IsActive: 1
--- !u!4 &6274564527992424100
Transform:
  m_ObjectHideFlags: 0
  m_CorrespondingSourceObject: {fileID: 0}
  m_PrefabInstance: {fileID: 0}
  m_PrefabAsset: {fileID: 0}
  m_GameObject: {fileID: 6274564527992424102}
  m_LocalRotation: {x: -0, y: -0, z: -0, w: 1}
  m_LocalPosition: {x: 0, y: 0, z: 0}
  m_LocalScale: {x: 1, y: 1, z: 1}
  m_Children:
  - {fileID: 1894863050874722057}
  - {fileID: 1894863049884382383}
  - {fileID: 1894863049821846861}
  - {fileID: 1894863050968023892}
  m_Father: {fileID: 6274564528866042889}
  m_RootOrder: 0
  m_LocalEulerAnglesHint: {x: 0, y: 0, z: 0}
--- !u!212 &6274564527992424101
SpriteRenderer:
  m_ObjectHideFlags: 0
  m_CorrespondingSourceObject: {fileID: 0}
  m_PrefabInstance: {fileID: 0}
  m_PrefabAsset: {fileID: 0}
  m_GameObject: {fileID: 6274564527992424102}
  m_Enabled: 1
  m_CastShadows: 0
  m_ReceiveShadows: 0
  m_DynamicOccludee: 1
  m_MotionVectors: 1
  m_LightProbeUsage: 1
  m_ReflectionProbeUsage: 1
  m_RayTracingMode: 0
  m_RenderingLayerMask: 1
  m_RendererPriority: 0
  m_Materials:
  - {fileID: 2100000, guid: a97c105638bdf8b4a8650670310a4cd3, type: 2}
  m_StaticBatchInfo:
    firstSubMesh: 0
    subMeshCount: 0
  m_StaticBatchRoot: {fileID: 0}
  m_ProbeAnchor: {fileID: 0}
  m_LightProbeVolumeOverride: {fileID: 0}
  m_ScaleInLightmap: 1
  m_ReceiveGI: 1
  m_PreserveUVs: 0
  m_IgnoreNormalsForChartDetection: 0
  m_ImportantGI: 0
  m_StitchLightmapSeams: 1
  m_SelectedEditorRenderState: 0
  m_MinimumChartSize: 4
  m_AutoUVMaxDistance: 0.5
  m_AutoUVMaxAngle: 89
  m_LightmapParameters: {fileID: 0}
  m_SortingLayerID: 0
  m_SortingLayer: 0
  m_SortingOrder: 0
  m_Sprite: {fileID: 21300014, guid: d926550b6fca5488b9b76f2733af1c45, type: 3}
  m_Color: {r: 1, g: 1, b: 1, a: 1}
  m_FlipX: 0
  m_FlipY: 0
  m_DrawMode: 0
  m_Size: {x: 0.82, y: 0.84}
  m_AdaptiveModeThreshold: 0.5
  m_SpriteTileMode: 0
  m_WasSpriteAssigned: 1
  m_MaskInteraction: 0
  m_SpriteSortPoint: 0
--- !u!114 &6274564527992424099
MonoBehaviour:
  m_ObjectHideFlags: 0
  m_CorrespondingSourceObject: {fileID: 0}
  m_PrefabInstance: {fileID: 0}
  m_PrefabAsset: {fileID: 0}
  m_GameObject: {fileID: 6274564527992424102}
  m_Enabled: 1
  m_EditorHideFlags: 0
  m_Script: {fileID: 11500000, guid: d35efa01b8ce74e0d8eb520a8b544a08, type: 3}
  m_Name: 
  m_EditorClassIdentifier: 
  speed: 5
  spinCounterclockwise: 1
--- !u!1 &6274564528866042890
GameObject:
  m_ObjectHideFlags: 0
  m_CorrespondingSourceObject: {fileID: 0}
  m_PrefabInstance: {fileID: 0}
  m_PrefabAsset: {fileID: 0}
  serializedVersion: 6
  m_Component:
  - component: {fileID: 6274564528866042889}
  m_Layer: 0
  m_Name: Roatating Laser
  m_TagString: Untagged
  m_Icon: {fileID: 0}
  m_NavMeshLayer: 0
  m_StaticEditorFlags: 0
  m_IsActive: 1
--- !u!4 &6274564528866042889
Transform:
  m_ObjectHideFlags: 0
  m_CorrespondingSourceObject: {fileID: 0}
  m_PrefabInstance: {fileID: 0}
  m_PrefabAsset: {fileID: 0}
  m_GameObject: {fileID: 6274564528866042890}
  m_LocalRotation: {x: 0, y: 0, z: 0, w: 1}
  m_LocalPosition: {x: 41.15, y: 7.79, z: -0.040643375}
  m_LocalScale: {x: 1, y: 1, z: 1}
  m_Children:
  - {fileID: 6274564527992424100}
  m_Father: {fileID: 0}
  m_RootOrder: 0
  m_LocalEulerAnglesHint: {x: 0, y: 0, z: 0}
--- !u!1001 &6274564527793743374
PrefabInstance:
  m_ObjectHideFlags: 0
  serializedVersion: 2
  m_Modification:
    m_TransformParent: {fileID: 6274564527992424100}
    m_Modifications:
    - target: {fileID: 5573306614902941018, guid: 88ac35ecbc8ff438dbb1a8f69d92df83,
        type: 3}
      propertyPath: m_LocalPosition.x
      value: 0
      objectReference: {fileID: 0}
    - target: {fileID: 5573306614902941018, guid: 88ac35ecbc8ff438dbb1a8f69d92df83,
        type: 3}
      propertyPath: m_LocalPosition.y
      value: 0
      objectReference: {fileID: 0}
    - target: {fileID: 5573306614902941018, guid: 88ac35ecbc8ff438dbb1a8f69d92df83,
        type: 3}
      propertyPath: m_LocalPosition.z
      value: 0
      objectReference: {fileID: 0}
    - target: {fileID: 5573306614902941018, guid: 88ac35ecbc8ff438dbb1a8f69d92df83,
        type: 3}
      propertyPath: m_LocalRotation.x
      value: 0
      objectReference: {fileID: 0}
    - target: {fileID: 5573306614902941018, guid: 88ac35ecbc8ff438dbb1a8f69d92df83,
        type: 3}
      propertyPath: m_LocalRotation.y
      value: 0
      objectReference: {fileID: 0}
    - target: {fileID: 5573306614902941018, guid: 88ac35ecbc8ff438dbb1a8f69d92df83,
        type: 3}
      propertyPath: m_LocalRotation.z
      value: 0
      objectReference: {fileID: 0}
    - target: {fileID: 5573306614902941018, guid: 88ac35ecbc8ff438dbb1a8f69d92df83,
        type: 3}
      propertyPath: m_LocalRotation.w
      value: 1
      objectReference: {fileID: 0}
    - target: {fileID: 5573306614902941018, guid: 88ac35ecbc8ff438dbb1a8f69d92df83,
        type: 3}
      propertyPath: m_RootOrder
      value: 3
      objectReference: {fileID: 0}
    - target: {fileID: 5573306614902941018, guid: 88ac35ecbc8ff438dbb1a8f69d92df83,
        type: 3}
      propertyPath: m_LocalEulerAnglesHint.x
      value: 0
      objectReference: {fileID: 0}
    - target: {fileID: 5573306614902941018, guid: 88ac35ecbc8ff438dbb1a8f69d92df83,
        type: 3}
      propertyPath: m_LocalEulerAnglesHint.y
      value: 0
      objectReference: {fileID: 0}
    - target: {fileID: 5573306614902941018, guid: 88ac35ecbc8ff438dbb1a8f69d92df83,
        type: 3}
      propertyPath: m_LocalEulerAnglesHint.z
      value: 0
      objectReference: {fileID: 0}
    - target: {fileID: 5573306614902941022, guid: 88ac35ecbc8ff438dbb1a8f69d92df83,
        type: 3}
      propertyPath: m_Name
      value: Laser Down
      objectReference: {fileID: 0}
    m_RemovedComponents: []
  m_SourcePrefab: {fileID: 100100000, guid: 88ac35ecbc8ff438dbb1a8f69d92df83, type: 3}
--- !u!4 &1894863050968023892 stripped
Transform:
  m_CorrespondingSourceObject: {fileID: 5573306614902941018, guid: 88ac35ecbc8ff438dbb1a8f69d92df83,
    type: 3}
  m_PrefabInstance: {fileID: 6274564527793743374}
  m_PrefabAsset: {fileID: 0}
--- !u!1001 &6274564527819944531
PrefabInstance:
  m_ObjectHideFlags: 0
  serializedVersion: 2
  m_Modification:
    m_TransformParent: {fileID: 6274564527992424100}
    m_Modifications:
    - target: {fileID: 5573306613382253030, guid: 88ac35ecbc8ff438dbb1a8f69d92df83,
        type: 3}
      propertyPath: m_LocalPosition.x
      value: -0.301
      objectReference: {fileID: 0}
    - target: {fileID: 5573306613382253030, guid: 88ac35ecbc8ff438dbb1a8f69d92df83,
        type: 3}
      propertyPath: m_LocalPosition.y
      value: 0
      objectReference: {fileID: 0}
    - target: {fileID: 5573306614902941018, guid: 88ac35ecbc8ff438dbb1a8f69d92df83,
        type: 3}
      propertyPath: m_LocalPosition.x
      value: 0
      objectReference: {fileID: 0}
    - target: {fileID: 5573306614902941018, guid: 88ac35ecbc8ff438dbb1a8f69d92df83,
        type: 3}
      propertyPath: m_LocalPosition.y
      value: 0
      objectReference: {fileID: 0}
    - target: {fileID: 5573306614902941018, guid: 88ac35ecbc8ff438dbb1a8f69d92df83,
        type: 3}
      propertyPath: m_LocalPosition.z
      value: 0
      objectReference: {fileID: 0}
    - target: {fileID: 5573306614902941018, guid: 88ac35ecbc8ff438dbb1a8f69d92df83,
        type: 3}
      propertyPath: m_LocalRotation.x
      value: 0
      objectReference: {fileID: 0}
    - target: {fileID: 5573306614902941018, guid: 88ac35ecbc8ff438dbb1a8f69d92df83,
        type: 3}
      propertyPath: m_LocalRotation.y
      value: 0
      objectReference: {fileID: 0}
    - target: {fileID: 5573306614902941018, guid: 88ac35ecbc8ff438dbb1a8f69d92df83,
        type: 3}
      propertyPath: m_LocalRotation.z
      value: 0
      objectReference: {fileID: 0}
    - target: {fileID: 5573306614902941018, guid: 88ac35ecbc8ff438dbb1a8f69d92df83,
        type: 3}
      propertyPath: m_LocalRotation.w
      value: 1
      objectReference: {fileID: 0}
    - target: {fileID: 5573306614902941018, guid: 88ac35ecbc8ff438dbb1a8f69d92df83,
        type: 3}
      propertyPath: m_RootOrder
      value: 0
      objectReference: {fileID: 0}
    - target: {fileID: 5573306614902941018, guid: 88ac35ecbc8ff438dbb1a8f69d92df83,
        type: 3}
      propertyPath: m_LocalEulerAnglesHint.x
      value: 0
      objectReference: {fileID: 0}
    - target: {fileID: 5573306614902941018, guid: 88ac35ecbc8ff438dbb1a8f69d92df83,
        type: 3}
      propertyPath: m_LocalEulerAnglesHint.y
      value: 0
      objectReference: {fileID: 0}
    - target: {fileID: 5573306614902941018, guid: 88ac35ecbc8ff438dbb1a8f69d92df83,
        type: 3}
      propertyPath: m_LocalEulerAnglesHint.z
      value: 0
      objectReference: {fileID: 0}
    - target: {fileID: 5573306614902941022, guid: 88ac35ecbc8ff438dbb1a8f69d92df83,
        type: 3}
      propertyPath: m_Name
      value: Laser Left
      objectReference: {fileID: 0}
    m_RemovedComponents: []
  m_SourcePrefab: {fileID: 100100000, guid: 88ac35ecbc8ff438dbb1a8f69d92df83, type: 3}
--- !u!4 &1894863050874722057 stripped
Transform:
  m_CorrespondingSourceObject: {fileID: 5573306614902941018, guid: 88ac35ecbc8ff438dbb1a8f69d92df83,
    type: 3}
  m_PrefabInstance: {fileID: 6274564527819944531}
  m_PrefabAsset: {fileID: 0}
--- !u!1001 &6274564528873198069
PrefabInstance:
  m_ObjectHideFlags: 0
  serializedVersion: 2
  m_Modification:
    m_TransformParent: {fileID: 6274564527992424100}
    m_Modifications:
    - target: {fileID: 5573306613382253030, guid: 88ac35ecbc8ff438dbb1a8f69d92df83,
        type: 3}
      propertyPath: m_LocalPosition.x
      value: 0
      objectReference: {fileID: 0}
    - target: {fileID: 5573306613382253030, guid: 88ac35ecbc8ff438dbb1a8f69d92df83,
        type: 3}
      propertyPath: m_LocalPosition.y
      value: 0.308
      objectReference: {fileID: 0}
    - target: {fileID: 5573306614902941018, guid: 88ac35ecbc8ff438dbb1a8f69d92df83,
        type: 3}
      propertyPath: m_LocalPosition.x
      value: 0
      objectReference: {fileID: 0}
    - target: {fileID: 5573306614902941018, guid: 88ac35ecbc8ff438dbb1a8f69d92df83,
        type: 3}
      propertyPath: m_LocalPosition.y
      value: 0
      objectReference: {fileID: 0}
    - target: {fileID: 5573306614902941018, guid: 88ac35ecbc8ff438dbb1a8f69d92df83,
        type: 3}
      propertyPath: m_LocalPosition.z
      value: 0
      objectReference: {fileID: 0}
    - target: {fileID: 5573306614902941018, guid: 88ac35ecbc8ff438dbb1a8f69d92df83,
        type: 3}
      propertyPath: m_LocalRotation.x
      value: 0
      objectReference: {fileID: 0}
    - target: {fileID: 5573306614902941018, guid: 88ac35ecbc8ff438dbb1a8f69d92df83,
        type: 3}
      propertyPath: m_LocalRotation.y
      value: 0
      objectReference: {fileID: 0}
    - target: {fileID: 5573306614902941018, guid: 88ac35ecbc8ff438dbb1a8f69d92df83,
        type: 3}
      propertyPath: m_LocalRotation.z
      value: 0
      objectReference: {fileID: 0}
    - target: {fileID: 5573306614902941018, guid: 88ac35ecbc8ff438dbb1a8f69d92df83,
        type: 3}
      propertyPath: m_LocalRotation.w
      value: 1
      objectReference: {fileID: 0}
    - target: {fileID: 5573306614902941018, guid: 88ac35ecbc8ff438dbb1a8f69d92df83,
        type: 3}
      propertyPath: m_RootOrder
      value: 1
      objectReference: {fileID: 0}
    - target: {fileID: 5573306614902941018, guid: 88ac35ecbc8ff438dbb1a8f69d92df83,
        type: 3}
      propertyPath: m_LocalEulerAnglesHint.x
      value: 0
      objectReference: {fileID: 0}
    - target: {fileID: 5573306614902941018, guid: 88ac35ecbc8ff438dbb1a8f69d92df83,
        type: 3}
      propertyPath: m_LocalEulerAnglesHint.y
      value: 0
      objectReference: {fileID: 0}
    - target: {fileID: 5573306614902941018, guid: 88ac35ecbc8ff438dbb1a8f69d92df83,
        type: 3}
      propertyPath: m_LocalEulerAnglesHint.z
      value: 0
      objectReference: {fileID: 0}
    - target: {fileID: 5573306614902941022, guid: 88ac35ecbc8ff438dbb1a8f69d92df83,
        type: 3}
      propertyPath: m_Name
      value: Laser Up
      objectReference: {fileID: 0}
    - target: {fileID: 5573306614943544057, guid: 88ac35ecbc8ff438dbb1a8f69d92df83,
        type: 3}
      propertyPath: m_LocalRotation.z
      value: 1
      objectReference: {fileID: 0}
    - target: {fileID: 5573306614943544057, guid: 88ac35ecbc8ff438dbb1a8f69d92df83,
        type: 3}
      propertyPath: m_LocalRotation.w
      value: 0
      objectReference: {fileID: 0}
    - target: {fileID: 5573306614943544057, guid: 88ac35ecbc8ff438dbb1a8f69d92df83,
        type: 3}
      propertyPath: m_LocalEulerAnglesHint.z
      value: 180
      objectReference: {fileID: 0}
    m_RemovedComponents: []
  m_SourcePrefab: {fileID: 100100000, guid: 88ac35ecbc8ff438dbb1a8f69d92df83, type: 3}
--- !u!4 &1894863049884382383 stripped
Transform:
  m_CorrespondingSourceObject: {fileID: 5573306614902941018, guid: 88ac35ecbc8ff438dbb1a8f69d92df83,
    type: 3}
  m_PrefabInstance: {fileID: 6274564528873198069}
  m_PrefabAsset: {fileID: 0}
--- !u!1001 &6274564528931543063
PrefabInstance:
  m_ObjectHideFlags: 0
  serializedVersion: 2
  m_Modification:
    m_TransformParent: {fileID: 6274564527992424100}
    m_Modifications:
    - target: {fileID: 5573306613382253030, guid: 88ac35ecbc8ff438dbb1a8f69d92df83,
        type: 3}
      propertyPath: m_LocalPosition.x
      value: 0.308
      objectReference: {fileID: 0}
    - target: {fileID: 5573306613382253030, guid: 88ac35ecbc8ff438dbb1a8f69d92df83,
        type: 3}
      propertyPath: m_LocalPosition.y
      value: 0
      objectReference: {fileID: 0}
    - target: {fileID: 5573306614902941018, guid: 88ac35ecbc8ff438dbb1a8f69d92df83,
        type: 3}
      propertyPath: m_LocalPosition.x
      value: 0
      objectReference: {fileID: 0}
    - target: {fileID: 5573306614902941018, guid: 88ac35ecbc8ff438dbb1a8f69d92df83,
        type: 3}
      propertyPath: m_LocalPosition.y
      value: 0
      objectReference: {fileID: 0}
    - target: {fileID: 5573306614902941018, guid: 88ac35ecbc8ff438dbb1a8f69d92df83,
        type: 3}
      propertyPath: m_LocalPosition.z
      value: 0
      objectReference: {fileID: 0}
    - target: {fileID: 5573306614902941018, guid: 88ac35ecbc8ff438dbb1a8f69d92df83,
        type: 3}
      propertyPath: m_LocalRotation.x
      value: 0
      objectReference: {fileID: 0}
    - target: {fileID: 5573306614902941018, guid: 88ac35ecbc8ff438dbb1a8f69d92df83,
        type: 3}
      propertyPath: m_LocalRotation.y
      value: 0
      objectReference: {fileID: 0}
    - target: {fileID: 5573306614902941018, guid: 88ac35ecbc8ff438dbb1a8f69d92df83,
        type: 3}
      propertyPath: m_LocalRotation.z
      value: 0
      objectReference: {fileID: 0}
    - target: {fileID: 5573306614902941018, guid: 88ac35ecbc8ff438dbb1a8f69d92df83,
        type: 3}
      propertyPath: m_LocalRotation.w
      value: 1
      objectReference: {fileID: 0}
    - target: {fileID: 5573306614902941018, guid: 88ac35ecbc8ff438dbb1a8f69d92df83,
        type: 3}
      propertyPath: m_RootOrder
      value: 2
      objectReference: {fileID: 0}
    - target: {fileID: 5573306614902941018, guid: 88ac35ecbc8ff438dbb1a8f69d92df83,
        type: 3}
      propertyPath: m_LocalEulerAnglesHint.x
      value: 0
      objectReference: {fileID: 0}
    - target: {fileID: 5573306614902941018, guid: 88ac35ecbc8ff438dbb1a8f69d92df83,
        type: 3}
      propertyPath: m_LocalEulerAnglesHint.y
      value: 0
      objectReference: {fileID: 0}
    - target: {fileID: 5573306614902941018, guid: 88ac35ecbc8ff438dbb1a8f69d92df83,
        type: 3}
      propertyPath: m_LocalEulerAnglesHint.z
      value: 0
      objectReference: {fileID: 0}
    - target: {fileID: 5573306614902941022, guid: 88ac35ecbc8ff438dbb1a8f69d92df83,
        type: 3}
      propertyPath: m_Name
      value: Laser Right
      objectReference: {fileID: 0}
    m_RemovedComponents: []
  m_SourcePrefab: {fileID: 100100000, guid: 88ac35ecbc8ff438dbb1a8f69d92df83, type: 3}
--- !u!4 &1894863049821846861 stripped
Transform:
  m_CorrespondingSourceObject: {fileID: 5573306614902941018, guid: 88ac35ecbc8ff438dbb1a8f69d92df83,
    type: 3}
  m_PrefabInstance: {fileID: 6274564528931543063}
  m_PrefabAsset: {fileID: 0}
