%YAML 1.1
%TAG !u! tag:unity3d.com,2011:
--- !u!74 &7400000
AnimationClip:
  m_ObjectHideFlags: 0
  m_CorrespondingSourceObject: {fileID: 0}
  m_PrefabInstance: {fileID: 0}
  m_PrefabAsset: {fileID: 0}
  m_Name: Death
  serializedVersion: 6
  m_Legacy: 0
  m_Compressed: 0
  m_UseHighQualityCurve: 1
  m_RotationCurves: []
  m_CompressedRotationCurves: []
  m_EulerCurves: []
  m_PositionCurves: []
  m_ScaleCurves: []
  m_FloatCurves: []
  m_PPtrCurves:
  - curve:
    - time: 0
      value: {fileID: 21300000, guid: cd88458be159e4dcd8673661e06aa57a, type: 3}
    - time: 0.06666667
      value: {fileID: 21300000, guid: f029fc31791b94003a83b744b12f0005, type: 3}
    - time: 0.15
      value: {fileID: 21300000, guid: 1e82290633afc45eeb747dbbe2214054, type: 3}
    - time: 0.21666667
      value: {fileID: 21300000, guid: 757ff569b2f22402bb4a68a15e4f9947, type: 3}
    - time: 0.28333333
      value: {fileID: 21300000, guid: d2e106806628341b382d527d99f72758, type: 3}
    - time: 0.35
      value: {fileID: 21300000, guid: 4daf012f1c35e484b9f70da77dd7218c, type: 3}
    - time: 0.43333334
      value: {fileID: 21300000, guid: a8279fac8e6f24d1ea32be39aca5a8c1, type: 3}
    - time: 0.5
      value: {fileID: 21300000, guid: 49fc58d716e8148cda8e3bebf175ce7d, type: 3}
    - time: 0.56666666
      value: {fileID: 21300000, guid: 7a7d7e1d22cb0420bb8adb3f6321f1df, type: 3}
    - time: 0.65
      value: {fileID: 21300000, guid: c8b893170c29b4571a43dabda74712d1, type: 3}
    - time: 0.71666664
      value: {fileID: 21300000, guid: c932cac32e8cd46f7a189c8b4083de47, type: 3}
    - time: 0.78333336
      value: {fileID: 21300000, guid: b0a30653b768a470893055d7ddd36ec8, type: 3}
    - time: 0.85
      value: {fileID: 21300000, guid: 2c8288223e3de473fb3e1b8357ebed95, type: 3}
    - time: 0.93333334
      value: {fileID: 21300000, guid: 01e40c3f338f4411abc49b697ac00e65, type: 3}
    - time: 1
      value: {fileID: 21300000, guid: fa2d7f5cae958470fb40f4fc46ddedf0, type: 3}
    attribute: m_Sprite
    path: 
    classID: 212
    script: {fileID: 0}
  m_SampleRate: 60
  m_WrapMode: 0
  m_Bounds:
    m_Center: {x: 0, y: 0, z: 0}
    m_Extent: {x: 0, y: 0, z: 0}
  m_ClipBindingConstant:
    genericBindings:
    - serializedVersion: 2
      path: 0
      attribute: 0
      script: {fileID: 0}
      typeID: 212
      customType: 23
      isPPtrCurve: 1
    pptrCurveMapping:
    - {fileID: 21300000, guid: cd88458be159e4dcd8673661e06aa57a, type: 3}
    - {fileID: 21300000, guid: f029fc31791b94003a83b744b12f0005, type: 3}
    - {fileID: 21300000, guid: 1e82290633afc45eeb747dbbe2214054, type: 3}
    - {fileID: 21300000, guid: 757ff569b2f22402bb4a68a15e4f9947, type: 3}
    - {fileID: 21300000, guid: d2e106806628341b382d527d99f72758, type: 3}
    - {fileID: 21300000, guid: 4daf012f1c35e484b9f70da77dd7218c, type: 3}
    - {fileID: 21300000, guid: a8279fac8e6f24d1ea32be39aca5a8c1, type: 3}
    - {fileID: 21300000, guid: 49fc58d716e8148cda8e3bebf175ce7d, type: 3}
    - {fileID: 21300000, guid: 7a7d7e1d22cb0420bb8adb3f6321f1df, type: 3}
    - {fileID: 21300000, guid: c8b893170c29b4571a43dabda74712d1, type: 3}
    - {fileID: 21300000, guid: c932cac32e8cd46f7a189c8b4083de47, type: 3}
    - {fileID: 21300000, guid: b0a30653b768a470893055d7ddd36ec8, type: 3}
    - {fileID: 21300000, guid: 2c8288223e3de473fb3e1b8357ebed95, type: 3}
    - {fileID: 21300000, guid: 01e40c3f338f4411abc49b697ac00e65, type: 3}
    - {fileID: 21300000, guid: fa2d7f5cae958470fb40f4fc46ddedf0, type: 3}
  m_AnimationClipSettings:
    serializedVersion: 2
    m_AdditiveReferencePoseClip: {fileID: 0}
    m_AdditiveReferencePoseTime: 0
    m_StartTime: 0
    m_StopTime: 1.0166667
    m_OrientationOffsetY: 0
    m_Level: 0
    m_CycleOffset: 0
    m_HasAdditiveReferencePose: 0
    m_LoopTime: 0
    m_LoopBlend: 0
    m_LoopBlendOrientation: 0
    m_LoopBlendPositionY: 0
    m_LoopBlendPositionXZ: 0
    m_KeepOriginalOrientation: 0
    m_KeepOriginalPositionY: 1
    m_KeepOriginalPositionXZ: 0
    m_HeightFromFeet: 0
    m_Mirror: 0
  m_EditorCurves: []
  m_EulerEditorCurves: []
  m_HasGenericRootTransform: 0
  m_HasMotionFloatCurves: 0
  m_Events: []
