%YAML 1.1
%TAG !u! tag:unity3d.com,2011:
--- !u!29 &1
OcclusionCullingSettings:
  m_ObjectHideFlags: 0
  serializedVersion: 2
  m_OcclusionBakeSettings:
    smallestOccluder: 5
    smallestHole: 0.25
    backfaceThreshold: 100
  m_SceneGUID: 00000000000000000000000000000000
  m_OcclusionCullingData: {fileID: 0}
--- !u!104 &2
RenderSettings:
  m_ObjectHideFlags: 0
  serializedVersion: 9
  m_Fog: 0
  m_FogColor: {r: 0.5, g: 0.5, b: 0.5, a: 1}
  m_FogMode: 3
  m_FogDensity: 0.01
  m_LinearFogStart: 0
  m_LinearFogEnd: 300
  m_AmbientSkyColor: {r: 0.212, g: 0.227, b: 0.259, a: 1}
  m_AmbientEquatorColor: {r: 0.114, g: 0.125, b: 0.133, a: 1}
  m_AmbientGroundColor: {r: 0.047, g: 0.043, b: 0.035, a: 1}
  m_AmbientIntensity: 1
  m_AmbientMode: 3
  m_SubtractiveShadowColor: {r: 0.42, g: 0.478, b: 0.627, a: 1}
  m_SkyboxMaterial: {fileID: 0}
  m_HaloStrength: 0.5
  m_FlareStrength: 1
  m_FlareFadeSpeed: 3
  m_HaloTexture: {fileID: 0}
  m_SpotCookie: {fileID: 10001, guid: 0000000000000000e000000000000000, type: 0}
  m_DefaultReflectionMode: 0
  m_DefaultReflectionResolution: 128
  m_ReflectionBounces: 1
  m_ReflectionIntensity: 1
  m_CustomReflection: {fileID: 0}
  m_Sun: {fileID: 0}
  m_IndirectSpecularColor: {r: 0, g: 0, b: 0, a: 1}
  m_UseRadianceAmbientProbe: 0
--- !u!157 &3
LightmapSettings:
  m_ObjectHideFlags: 0
  serializedVersion: 12
  m_GIWorkflowMode: 1
  m_GISettings:
    serializedVersion: 2
    m_BounceScale: 1
    m_IndirectOutputScale: 1
    m_AlbedoBoost: 1
    m_EnvironmentLightingMode: 0
    m_EnableBakedLightmaps: 0
    m_EnableRealtimeLightmaps: 0
  m_LightmapEditorSettings:
    serializedVersion: 12
    m_Resolution: 2
    m_BakeResolution: 40
    m_AtlasSize: 1024
    m_AO: 0
    m_AOMaxDistance: 1
    m_CompAOExponent: 1
    m_CompAOExponentDirect: 0
    m_ExtractAmbientOcclusion: 0
    m_Padding: 2
    m_LightmapParameters: {fileID: 0}
    m_LightmapsBakeMode: 1
    m_TextureCompression: 1
    m_FinalGather: 0
    m_FinalGatherFiltering: 1
    m_FinalGatherRayCount: 256
    m_ReflectionCompression: 2
    m_MixedBakeMode: 2
    m_BakeBackend: 1
    m_PVRSampling: 1
    m_PVRDirectSampleCount: 32
    m_PVRSampleCount: 512
    m_PVRBounces: 2
    m_PVREnvironmentSampleCount: 256
    m_PVREnvironmentReferencePointCount: 2048
    m_PVRFilteringMode: 1
    m_PVRDenoiserTypeDirect: 1
    m_PVRDenoiserTypeIndirect: 1
    m_PVRDenoiserTypeAO: 1
    m_PVRFilterTypeDirect: 0
    m_PVRFilterTypeIndirect: 0
    m_PVRFilterTypeAO: 0
    m_PVREnvironmentMIS: 1
    m_PVRCulling: 1
    m_PVRFilteringGaussRadiusDirect: 1
    m_PVRFilteringGaussRadiusIndirect: 5
    m_PVRFilteringGaussRadiusAO: 2
    m_PVRFilteringAtrousPositionSigmaDirect: 0.5
    m_PVRFilteringAtrousPositionSigmaIndirect: 2
    m_PVRFilteringAtrousPositionSigmaAO: 1
    m_ExportTrainingData: 0
    m_TrainingDataDestination: TrainingData
    m_LightProbeSampleCountMultiplier: 4
  m_LightingDataAsset: {fileID: 0}
  m_LightingSettings: {fileID: 0}
--- !u!196 &4
NavMeshSettings:
  serializedVersion: 2
  m_ObjectHideFlags: 0
  m_BuildSettings:
    serializedVersion: 2
    agentTypeID: 0
    agentRadius: 0.5
    agentHeight: 2
    agentSlope: 45
    agentClimb: 0.4
    ledgeDropHeight: 0
    maxJumpAcrossDistance: 0
    minRegionArea: 2
    manualCellSize: 0
    cellSize: 0.16666667
    manualTileSize: 0
    tileSize: 256
    accuratePlacement: 0
    maxJobWorkers: 0
    preserveTilesOutsideBounds: 0
    debug:
      m_Flags: 0
  m_NavMeshData: {fileID: 0}
--- !u!4 &107572423 stripped
Transform:
  m_CorrespondingSourceObject: {fileID: 445620, guid: d39eb7b8fc88a2842b4b1307778defdd,
    type: 3}
  m_PrefabInstance: {fileID: 843522934}
  m_PrefabAsset: {fileID: 0}
--- !u!1001 &168825605
PrefabInstance:
  m_ObjectHideFlags: 0
  serializedVersion: 2
  m_Modification:
    m_TransformParent: {fileID: 2127928157}
    m_Modifications:
    - target: {fileID: 150686, guid: d39eb7b8fc88a2842b4b1307778defdd, type: 3}
      propertyPath: m_Name
      value: Platform700x100 (4)
      objectReference: {fileID: 0}
    - target: {fileID: 445620, guid: d39eb7b8fc88a2842b4b1307778defdd, type: 3}
      propertyPath: m_LocalPosition.x
      value: 18.54
      objectReference: {fileID: 0}
    - target: {fileID: 445620, guid: d39eb7b8fc88a2842b4b1307778defdd, type: 3}
      propertyPath: m_LocalPosition.y
      value: -2.13
      objectReference: {fileID: 0}
    - target: {fileID: 445620, guid: d39eb7b8fc88a2842b4b1307778defdd, type: 3}
      propertyPath: m_LocalPosition.z
      value: 97.44593
      objectReference: {fileID: 0}
    - target: {fileID: 445620, guid: d39eb7b8fc88a2842b4b1307778defdd, type: 3}
      propertyPath: m_LocalRotation.x
      value: -0
      objectReference: {fileID: 0}
    - target: {fileID: 445620, guid: d39eb7b8fc88a2842b4b1307778defdd, type: 3}
      propertyPath: m_LocalRotation.y
      value: -0
      objectReference: {fileID: 0}
    - target: {fileID: 445620, guid: d39eb7b8fc88a2842b4b1307778defdd, type: 3}
      propertyPath: m_LocalRotation.z
      value: -0
      objectReference: {fileID: 0}
    - target: {fileID: 445620, guid: d39eb7b8fc88a2842b4b1307778defdd, type: 3}
      propertyPath: m_LocalRotation.w
      value: 1
      objectReference: {fileID: 0}
    - target: {fileID: 445620, guid: d39eb7b8fc88a2842b4b1307778defdd, type: 3}
      propertyPath: m_RootOrder
      value: 4
      objectReference: {fileID: 0}
    - target: {fileID: 445620, guid: d39eb7b8fc88a2842b4b1307778defdd, type: 3}
      propertyPath: m_LocalEulerAnglesHint.x
      value: 0
      objectReference: {fileID: 0}
    - target: {fileID: 445620, guid: d39eb7b8fc88a2842b4b1307778defdd, type: 3}
      propertyPath: m_LocalEulerAnglesHint.y
      value: 0
      objectReference: {fileID: 0}
    - target: {fileID: 445620, guid: d39eb7b8fc88a2842b4b1307778defdd, type: 3}
      propertyPath: m_LocalEulerAnglesHint.z
      value: 0
      objectReference: {fileID: 0}
    m_RemovedComponents: []
  m_SourcePrefab: {fileID: 100100000, guid: d39eb7b8fc88a2842b4b1307778defdd, type: 3}
--- !u!1001 &225834997
PrefabInstance:
  m_ObjectHideFlags: 0
  serializedVersion: 2
  m_Modification:
    m_TransformParent: {fileID: 2127928157}
    m_Modifications:
    - target: {fileID: 150686, guid: d39eb7b8fc88a2842b4b1307778defdd, type: 3}
      propertyPath: m_Name
      value: Platform700x100 (6)
      objectReference: {fileID: 0}
    - target: {fileID: 445620, guid: d39eb7b8fc88a2842b4b1307778defdd, type: 3}
      propertyPath: m_LocalPosition.x
      value: 24.34
      objectReference: {fileID: 0}
    - target: {fileID: 445620, guid: d39eb7b8fc88a2842b4b1307778defdd, type: 3}
      propertyPath: m_LocalPosition.y
      value: 0.87
      objectReference: {fileID: 0}
    - target: {fileID: 445620, guid: d39eb7b8fc88a2842b4b1307778defdd, type: 3}
      propertyPath: m_LocalPosition.z
      value: 97.44593
      objectReference: {fileID: 0}
    - target: {fileID: 445620, guid: d39eb7b8fc88a2842b4b1307778defdd, type: 3}
      propertyPath: m_LocalRotation.x
      value: -0
      objectReference: {fileID: 0}
    - target: {fileID: 445620, guid: d39eb7b8fc88a2842b4b1307778defdd, type: 3}
      propertyPath: m_LocalRotation.y
      value: -0
      objectReference: {fileID: 0}
    - target: {fileID: 445620, guid: d39eb7b8fc88a2842b4b1307778defdd, type: 3}
      propertyPath: m_LocalRotation.z
      value: -0
      objectReference: {fileID: 0}
    - target: {fileID: 445620, guid: d39eb7b8fc88a2842b4b1307778defdd, type: 3}
      propertyPath: m_LocalRotation.w
      value: 1
      objectReference: {fileID: 0}
    - target: {fileID: 445620, guid: d39eb7b8fc88a2842b4b1307778defdd, type: 3}
      propertyPath: m_RootOrder
      value: 6
      objectReference: {fileID: 0}
    - target: {fileID: 445620, guid: d39eb7b8fc88a2842b4b1307778defdd, type: 3}
      propertyPath: m_LocalEulerAnglesHint.x
      value: 0
      objectReference: {fileID: 0}
    - target: {fileID: 445620, guid: d39eb7b8fc88a2842b4b1307778defdd, type: 3}
      propertyPath: m_LocalEulerAnglesHint.y
      value: 0
      objectReference: {fileID: 0}
    - target: {fileID: 445620, guid: d39eb7b8fc88a2842b4b1307778defdd, type: 3}
      propertyPath: m_LocalEulerAnglesHint.z
      value: 0
      objectReference: {fileID: 0}
    m_RemovedComponents: []
  m_SourcePrefab: {fileID: 100100000, guid: d39eb7b8fc88a2842b4b1307778defdd, type: 3}
--- !u!1001 &241354034
PrefabInstance:
  m_ObjectHideFlags: 0
  serializedVersion: 2
  m_Modification:
    m_TransformParent: {fileID: 2127928157}
    m_Modifications:
    - target: {fileID: 150686, guid: d39eb7b8fc88a2842b4b1307778defdd, type: 3}
      propertyPath: m_Name
      value: Platform700x100 (3)
      objectReference: {fileID: 0}
    - target: {fileID: 445620, guid: d39eb7b8fc88a2842b4b1307778defdd, type: 3}
      propertyPath: m_LocalPosition.x
      value: 12.24
      objectReference: {fileID: 0}
    - target: {fileID: 445620, guid: d39eb7b8fc88a2842b4b1307778defdd, type: 3}
      propertyPath: m_LocalPosition.y
      value: 0.854
      objectReference: {fileID: 0}
    - target: {fileID: 445620, guid: d39eb7b8fc88a2842b4b1307778defdd, type: 3}
      propertyPath: m_LocalPosition.z
      value: 97.44593
      objectReference: {fileID: 0}
    - target: {fileID: 445620, guid: d39eb7b8fc88a2842b4b1307778defdd, type: 3}
      propertyPath: m_LocalRotation.x
      value: -0
      objectReference: {fileID: 0}
    - target: {fileID: 445620, guid: d39eb7b8fc88a2842b4b1307778defdd, type: 3}
      propertyPath: m_LocalRotation.y
      value: -0
      objectReference: {fileID: 0}
    - target: {fileID: 445620, guid: d39eb7b8fc88a2842b4b1307778defdd, type: 3}
      propertyPath: m_LocalRotation.z
      value: -0
      objectReference: {fileID: 0}
    - target: {fileID: 445620, guid: d39eb7b8fc88a2842b4b1307778defdd, type: 3}
      propertyPath: m_LocalRotation.w
      value: 1
      objectReference: {fileID: 0}
    - target: {fileID: 445620, guid: d39eb7b8fc88a2842b4b1307778defdd, type: 3}
      propertyPath: m_RootOrder
      value: 3
      objectReference: {fileID: 0}
    - target: {fileID: 445620, guid: d39eb7b8fc88a2842b4b1307778defdd, type: 3}
      propertyPath: m_LocalEulerAnglesHint.x
      value: 0
      objectReference: {fileID: 0}
    - target: {fileID: 445620, guid: d39eb7b8fc88a2842b4b1307778defdd, type: 3}
      propertyPath: m_LocalEulerAnglesHint.y
      value: 0
      objectReference: {fileID: 0}
    - target: {fileID: 445620, guid: d39eb7b8fc88a2842b4b1307778defdd, type: 3}
      propertyPath: m_LocalEulerAnglesHint.z
      value: 0
      objectReference: {fileID: 0}
    m_RemovedComponents: []
  m_SourcePrefab: {fileID: 100100000, guid: d39eb7b8fc88a2842b4b1307778defdd, type: 3}
--- !u!4 &293153950 stripped
Transform:
  m_CorrespondingSourceObject: {fileID: 445620, guid: d39eb7b8fc88a2842b4b1307778defdd,
    type: 3}
  m_PrefabInstance: {fileID: 1558422520}
  m_PrefabAsset: {fileID: 0}
--- !u!4 &314787080 stripped
Transform:
  m_CorrespondingSourceObject: {fileID: 445620, guid: d39eb7b8fc88a2842b4b1307778defdd,
    type: 3}
  m_PrefabInstance: {fileID: 241354034}
  m_PrefabAsset: {fileID: 0}
--- !u!1001 &366192117
PrefabInstance:
  m_ObjectHideFlags: 0
  serializedVersion: 2
  m_Modification:
    m_TransformParent: {fileID: 2127928157}
    m_Modifications:
    - target: {fileID: 150686, guid: d39eb7b8fc88a2842b4b1307778defdd, type: 3}
      propertyPath: m_Name
      value: Platform700x100 (8)
      objectReference: {fileID: 0}
    - target: {fileID: 445620, guid: d39eb7b8fc88a2842b4b1307778defdd, type: 3}
      propertyPath: m_LocalPosition.x
      value: 58.28
      objectReference: {fileID: 0}
    - target: {fileID: 445620, guid: d39eb7b8fc88a2842b4b1307778defdd, type: 3}
      propertyPath: m_LocalPosition.y
      value: 0.87
      objectReference: {fileID: 0}
    - target: {fileID: 445620, guid: d39eb7b8fc88a2842b4b1307778defdd, type: 3}
      propertyPath: m_LocalPosition.z
      value: 97.44593
      objectReference: {fileID: 0}
    - target: {fileID: 445620, guid: d39eb7b8fc88a2842b4b1307778defdd, type: 3}
      propertyPath: m_LocalRotation.x
      value: -0
      objectReference: {fileID: 0}
    - target: {fileID: 445620, guid: d39eb7b8fc88a2842b4b1307778defdd, type: 3}
      propertyPath: m_LocalRotation.y
      value: -0
      objectReference: {fileID: 0}
    - target: {fileID: 445620, guid: d39eb7b8fc88a2842b4b1307778defdd, type: 3}
      propertyPath: m_LocalRotation.z
      value: -0
      objectReference: {fileID: 0}
    - target: {fileID: 445620, guid: d39eb7b8fc88a2842b4b1307778defdd, type: 3}
      propertyPath: m_LocalRotation.w
      value: 1
      objectReference: {fileID: 0}
    - target: {fileID: 445620, guid: d39eb7b8fc88a2842b4b1307778defdd, type: 3}
      propertyPath: m_RootOrder
      value: 8
      objectReference: {fileID: 0}
    - target: {fileID: 445620, guid: d39eb7b8fc88a2842b4b1307778defdd, type: 3}
      propertyPath: m_LocalEulerAnglesHint.x
      value: 0
      objectReference: {fileID: 0}
    - target: {fileID: 445620, guid: d39eb7b8fc88a2842b4b1307778defdd, type: 3}
      propertyPath: m_LocalEulerAnglesHint.y
      value: 0
      objectReference: {fileID: 0}
    - target: {fileID: 445620, guid: d39eb7b8fc88a2842b4b1307778defdd, type: 3}
      propertyPath: m_LocalEulerAnglesHint.z
      value: 0
      objectReference: {fileID: 0}
    m_RemovedComponents: []
  m_SourcePrefab: {fileID: 100100000, guid: d39eb7b8fc88a2842b4b1307778defdd, type: 3}
--- !u!4 &372368912 stripped
Transform:
  m_CorrespondingSourceObject: {fileID: 445620, guid: d39eb7b8fc88a2842b4b1307778defdd,
    type: 3}
  m_PrefabInstance: {fileID: 168825605}
  m_PrefabAsset: {fileID: 0}
--- !u!4 &514063622 stripped
Transform:
  m_CorrespondingSourceObject: {fileID: 445620, guid: d39eb7b8fc88a2842b4b1307778defdd,
    type: 3}
  m_PrefabInstance: {fileID: 1578841117}
  m_PrefabAsset: {fileID: 0}
--- !u!1001 &655736496
PrefabInstance:
  m_ObjectHideFlags: 0
  serializedVersion: 2
  m_Modification:
    m_TransformParent: {fileID: 0}
    m_Modifications:
    - target: {fileID: 2080011147560094011, guid: d4f7cbaf08538464da50a14177877aea,
        type: 3}
      propertyPath: m_LocalPosition.x
      value: 0
      objectReference: {fileID: 0}
    - target: {fileID: 2080011147560094011, guid: d4f7cbaf08538464da50a14177877aea,
        type: 3}
      propertyPath: m_LocalPosition.y
      value: 0
      objectReference: {fileID: 0}
    - target: {fileID: 2080011147560094011, guid: d4f7cbaf08538464da50a14177877aea,
        type: 3}
      propertyPath: m_LocalPosition.z
      value: 0
      objectReference: {fileID: 0}
    - target: {fileID: 2080011147560094011, guid: d4f7cbaf08538464da50a14177877aea,
        type: 3}
      propertyPath: m_LocalRotation.x
      value: 0
      objectReference: {fileID: 0}
    - target: {fileID: 2080011147560094011, guid: d4f7cbaf08538464da50a14177877aea,
        type: 3}
      propertyPath: m_LocalRotation.y
      value: 0
      objectReference: {fileID: 0}
    - target: {fileID: 2080011147560094011, guid: d4f7cbaf08538464da50a14177877aea,
        type: 3}
      propertyPath: m_LocalRotation.z
      value: 0
      objectReference: {fileID: 0}
    - target: {fileID: 2080011147560094011, guid: d4f7cbaf08538464da50a14177877aea,
        type: 3}
      propertyPath: m_LocalRotation.w
      value: 1
      objectReference: {fileID: 0}
    - target: {fileID: 2080011147560094011, guid: d4f7cbaf08538464da50a14177877aea,
        type: 3}
      propertyPath: m_RootOrder
      value: 2
      objectReference: {fileID: 0}
    - target: {fileID: 2080011147560094011, guid: d4f7cbaf08538464da50a14177877aea,
        type: 3}
      propertyPath: m_LocalEulerAnglesHint.x
      value: 0
      objectReference: {fileID: 0}
    - target: {fileID: 2080011147560094011, guid: d4f7cbaf08538464da50a14177877aea,
        type: 3}
      propertyPath: m_LocalEulerAnglesHint.y
      value: 0
      objectReference: {fileID: 0}
    - target: {fileID: 2080011147560094011, guid: d4f7cbaf08538464da50a14177877aea,
        type: 3}
      propertyPath: m_LocalEulerAnglesHint.z
      value: 0
      objectReference: {fileID: 0}
    - target: {fileID: 7311213537616389053, guid: d4f7cbaf08538464da50a14177877aea,
        type: 3}
      propertyPath: m_Name
      value: CameraRig
      objectReference: {fileID: 0}
    - target: {fileID: 7697204206964090201, guid: d4f7cbaf08538464da50a14177877aea,
        type: 3}
      propertyPath: m_LocalPosition.y
      value: -14.9
      objectReference: {fileID: 0}
    - target: {fileID: 7697204206964090201, guid: d4f7cbaf08538464da50a14177877aea,
        type: 3}
      propertyPath: m_LocalPosition.x
      value: 2.7811508
      objectReference: {fileID: 0}
    m_RemovedComponents: []
  m_SourcePrefab: {fileID: 100100000, guid: d4f7cbaf08538464da50a14177877aea, type: 3}
--- !u!1001 &843522934
PrefabInstance:
  m_ObjectHideFlags: 0
  serializedVersion: 2
  m_Modification:
    m_TransformParent: {fileID: 2127928157}
    m_Modifications:
    - target: {fileID: 150686, guid: d39eb7b8fc88a2842b4b1307778defdd, type: 3}
      propertyPath: m_Name
      value: Platform700x100 (5)
      objectReference: {fileID: 0}
    - target: {fileID: 445620, guid: d39eb7b8fc88a2842b4b1307778defdd, type: 3}
      propertyPath: m_LocalPosition.x
      value: -8.27
      objectReference: {fileID: 0}
    - target: {fileID: 445620, guid: d39eb7b8fc88a2842b4b1307778defdd, type: 3}
      propertyPath: m_LocalPosition.y
      value: -3.1642284
      objectReference: {fileID: 0}
    - target: {fileID: 445620, guid: d39eb7b8fc88a2842b4b1307778defdd, type: 3}
      propertyPath: m_LocalPosition.z
      value: 97.44593
      objectReference: {fileID: 0}
    - target: {fileID: 445620, guid: d39eb7b8fc88a2842b4b1307778defdd, type: 3}
      propertyPath: m_LocalRotation.x
      value: -0
      objectReference: {fileID: 0}
    - target: {fileID: 445620, guid: d39eb7b8fc88a2842b4b1307778defdd, type: 3}
      propertyPath: m_LocalRotation.y
      value: -0
      objectReference: {fileID: 0}
    - target: {fileID: 445620, guid: d39eb7b8fc88a2842b4b1307778defdd, type: 3}
      propertyPath: m_LocalRotation.z
      value: -0
      objectReference: {fileID: 0}
    - target: {fileID: 445620, guid: d39eb7b8fc88a2842b4b1307778defdd, type: 3}
      propertyPath: m_LocalRotation.w
      value: 1
      objectReference: {fileID: 0}
    - target: {fileID: 445620, guid: d39eb7b8fc88a2842b4b1307778defdd, type: 3}
      propertyPath: m_RootOrder
      value: 5
      objectReference: {fileID: 0}
    - target: {fileID: 445620, guid: d39eb7b8fc88a2842b4b1307778defdd, type: 3}
      propertyPath: m_LocalEulerAnglesHint.x
      value: 0
      objectReference: {fileID: 0}
    - target: {fileID: 445620, guid: d39eb7b8fc88a2842b4b1307778defdd, type: 3}
      propertyPath: m_LocalEulerAnglesHint.y
      value: 0
      objectReference: {fileID: 0}
    - target: {fileID: 445620, guid: d39eb7b8fc88a2842b4b1307778defdd, type: 3}
      propertyPath: m_LocalEulerAnglesHint.z
      value: 0
      objectReference: {fileID: 0}
    m_RemovedComponents: []
  m_SourcePrefab: {fileID: 100100000, guid: d39eb7b8fc88a2842b4b1307778defdd, type: 3}
--- !u!4 &908960786 stripped
Transform:
  m_CorrespondingSourceObject: {fileID: 445620, guid: d39eb7b8fc88a2842b4b1307778defdd,
    type: 3}
  m_PrefabInstance: {fileID: 366192117}
  m_PrefabAsset: {fileID: 0}
--- !u!1001 &927762674
PrefabInstance:
  m_ObjectHideFlags: 0
  serializedVersion: 2
  m_Modification:
    m_TransformParent: {fileID: 2127928157}
    m_Modifications:
    - target: {fileID: 150686, guid: d39eb7b8fc88a2842b4b1307778defdd, type: 3}
      propertyPath: m_Name
      value: Platform700x100 (7)
      objectReference: {fileID: 0}
    - target: {fileID: 445620, guid: d39eb7b8fc88a2842b4b1307778defdd, type: 3}
      propertyPath: m_LocalPosition.x
      value: 38.25
      objectReference: {fileID: 0}
    - target: {fileID: 445620, guid: d39eb7b8fc88a2842b4b1307778defdd, type: 3}
      propertyPath: m_LocalPosition.y
      value: 0.87
      objectReference: {fileID: 0}
    - target: {fileID: 445620, guid: d39eb7b8fc88a2842b4b1307778defdd, type: 3}
      propertyPath: m_LocalPosition.z
      value: 97.44593
      objectReference: {fileID: 0}
    - target: {fileID: 445620, guid: d39eb7b8fc88a2842b4b1307778defdd, type: 3}
      propertyPath: m_LocalRotation.x
      value: -0
      objectReference: {fileID: 0}
    - target: {fileID: 445620, guid: d39eb7b8fc88a2842b4b1307778defdd, type: 3}
      propertyPath: m_LocalRotation.y
      value: -0
      objectReference: {fileID: 0}
    - target: {fileID: 445620, guid: d39eb7b8fc88a2842b4b1307778defdd, type: 3}
      propertyPath: m_LocalRotation.z
      value: -0
      objectReference: {fileID: 0}
    - target: {fileID: 445620, guid: d39eb7b8fc88a2842b4b1307778defdd, type: 3}
      propertyPath: m_LocalRotation.w
      value: 1
      objectReference: {fileID: 0}
    - target: {fileID: 445620, guid: d39eb7b8fc88a2842b4b1307778defdd, type: 3}
      propertyPath: m_RootOrder
      value: 7
      objectReference: {fileID: 0}
    - target: {fileID: 445620, guid: d39eb7b8fc88a2842b4b1307778defdd, type: 3}
      propertyPath: m_LocalEulerAnglesHint.x
      value: 0
      objectReference: {fileID: 0}
    - target: {fileID: 445620, guid: d39eb7b8fc88a2842b4b1307778defdd, type: 3}
      propertyPath: m_LocalEulerAnglesHint.y
      value: 0
      objectReference: {fileID: 0}
    - target: {fileID: 445620, guid: d39eb7b8fc88a2842b4b1307778defdd, type: 3}
      propertyPath: m_LocalEulerAnglesHint.z
      value: 0
      objectReference: {fileID: 0}
    m_RemovedComponents: []
  m_SourcePrefab: {fileID: 100100000, guid: d39eb7b8fc88a2842b4b1307778defdd, type: 3}
--- !u!1 &970707294
GameObject:
  m_ObjectHideFlags: 0
  m_CorrespondingSourceObject: {fileID: 0}
  m_PrefabInstance: {fileID: 0}
  m_PrefabAsset: {fileID: 0}
  serializedVersion: 6
  m_Component:
  - component: {fileID: 970707295}
  m_Layer: 0
  m_Name: LEVEL
  m_TagString: Untagged
  m_Icon: {fileID: 0}
  m_NavMeshLayer: 0
  m_StaticEditorFlags: 0
  m_IsActive: 1
--- !u!4 &970707295
Transform:
  m_ObjectHideFlags: 0
  m_CorrespondingSourceObject: {fileID: 0}
  m_PrefabInstance: {fileID: 0}
  m_PrefabAsset: {fileID: 0}
  m_GameObject: {fileID: 970707294}
  m_LocalRotation: {x: 0, y: 0, z: 0, w: 1}
  m_LocalPosition: {x: 1.2152464, y: -16.337772, z: -97.44593}
  m_LocalScale: {x: 1, y: 1, z: 1}
  m_Children:
  - {fileID: 2127928157}
  m_Father: {fileID: 0}
  m_RootOrder: 5
  m_LocalEulerAnglesHint: {x: 0, y: 0, z: 0}
--- !u!1001 &1070957410
PrefabInstance:
  m_ObjectHideFlags: 0
  serializedVersion: 2
  m_Modification:
    m_TransformParent: {fileID: 0}
    m_Modifications:
    - target: {fileID: 8666279557159629520, guid: d6dcffcdfc5ef47d29a65afee199d926,
        type: 3}
      propertyPath: PlayerPrefabs.Array.data[0]
      value: 
      objectReference: {fileID: 11488376, guid: 23a1ce96a36914595959ba16a4124129,
        type: 3}
    - target: {fileID: 8666279557159629524, guid: d6dcffcdfc5ef47d29a65afee199d926,
        type: 3}
      propertyPath: GasLabelText
      value: 
      objectReference: {fileID: 1852838794}
    - target: {fileID: 8666279557159629527, guid: d6dcffcdfc5ef47d29a65afee199d926,
        type: 3}
      propertyPath: m_LocalPosition.x
      value: 0
      objectReference: {fileID: 0}
    - target: {fileID: 8666279557159629527, guid: d6dcffcdfc5ef47d29a65afee199d926,
        type: 3}
      propertyPath: m_LocalPosition.y
      value: 0
      objectReference: {fileID: 0}
    - target: {fileID: 8666279557159629527, guid: d6dcffcdfc5ef47d29a65afee199d926,
        type: 3}
      propertyPath: m_LocalPosition.z
      value: 0
      objectReference: {fileID: 0}
    - target: {fileID: 8666279557159629527, guid: d6dcffcdfc5ef47d29a65afee199d926,
        type: 3}
      propertyPath: m_LocalRotation.x
      value: 0
      objectReference: {fileID: 0}
    - target: {fileID: 8666279557159629527, guid: d6dcffcdfc5ef47d29a65afee199d926,
        type: 3}
      propertyPath: m_LocalRotation.y
      value: 0
      objectReference: {fileID: 0}
    - target: {fileID: 8666279557159629527, guid: d6dcffcdfc5ef47d29a65afee199d926,
        type: 3}
      propertyPath: m_LocalRotation.z
      value: 0
      objectReference: {fileID: 0}
    - target: {fileID: 8666279557159629527, guid: d6dcffcdfc5ef47d29a65afee199d926,
        type: 3}
      propertyPath: m_LocalRotation.w
      value: 1
      objectReference: {fileID: 0}
    - target: {fileID: 8666279557159629527, guid: d6dcffcdfc5ef47d29a65afee199d926,
        type: 3}
      propertyPath: m_RootOrder
      value: 3
      objectReference: {fileID: 0}
    - target: {fileID: 8666279557159629527, guid: d6dcffcdfc5ef47d29a65afee199d926,
        type: 3}
      propertyPath: m_LocalEulerAnglesHint.x
      value: 0
      objectReference: {fileID: 0}
    - target: {fileID: 8666279557159629527, guid: d6dcffcdfc5ef47d29a65afee199d926,
        type: 3}
      propertyPath: m_LocalEulerAnglesHint.y
      value: 0
      objectReference: {fileID: 0}
    - target: {fileID: 8666279557159629527, guid: d6dcffcdfc5ef47d29a65afee199d926,
        type: 3}
      propertyPath: m_LocalEulerAnglesHint.z
      value: 0
      objectReference: {fileID: 0}
    - target: {fileID: 8666279557159629546, guid: d6dcffcdfc5ef47d29a65afee199d926,
        type: 3}
      propertyPath: m_Name
      value: Managers
      objectReference: {fileID: 0}
    m_RemovedComponents: []
  m_SourcePrefab: {fileID: 100100000, guid: d6dcffcdfc5ef47d29a65afee199d926, type: 3}
--- !u!1001 &1116945662
PrefabInstance:
  m_ObjectHideFlags: 0
  serializedVersion: 2
  m_Modification:
    m_TransformParent: {fileID: 2127928157}
    m_Modifications:
    - target: {fileID: 150686, guid: d39eb7b8fc88a2842b4b1307778defdd, type: 3}
      propertyPath: m_Name
      value: Platform700x100 (11)
      objectReference: {fileID: 0}
    - target: {fileID: 445620, guid: d39eb7b8fc88a2842b4b1307778defdd, type: 3}
      propertyPath: m_LocalPosition.x
      value: 50.88
      objectReference: {fileID: 0}
    - target: {fileID: 445620, guid: d39eb7b8fc88a2842b4b1307778defdd, type: 3}
      propertyPath: m_LocalPosition.y
      value: -2.13
      objectReference: {fileID: 0}
    - target: {fileID: 445620, guid: d39eb7b8fc88a2842b4b1307778defdd, type: 3}
      propertyPath: m_LocalPosition.z
      value: 97.44593
      objectReference: {fileID: 0}
    - target: {fileID: 445620, guid: d39eb7b8fc88a2842b4b1307778defdd, type: 3}
      propertyPath: m_LocalRotation.x
      value: -0
      objectReference: {fileID: 0}
    - target: {fileID: 445620, guid: d39eb7b8fc88a2842b4b1307778defdd, type: 3}
      propertyPath: m_LocalRotation.y
      value: -0
      objectReference: {fileID: 0}
    - target: {fileID: 445620, guid: d39eb7b8fc88a2842b4b1307778defdd, type: 3}
      propertyPath: m_LocalRotation.z
      value: -0
      objectReference: {fileID: 0}
    - target: {fileID: 445620, guid: d39eb7b8fc88a2842b4b1307778defdd, type: 3}
      propertyPath: m_LocalRotation.w
      value: 1
      objectReference: {fileID: 0}
    - target: {fileID: 445620, guid: d39eb7b8fc88a2842b4b1307778defdd, type: 3}
      propertyPath: m_RootOrder
      value: 11
      objectReference: {fileID: 0}
    - target: {fileID: 445620, guid: d39eb7b8fc88a2842b4b1307778defdd, type: 3}
      propertyPath: m_LocalEulerAnglesHint.x
      value: 0
      objectReference: {fileID: 0}
    - target: {fileID: 445620, guid: d39eb7b8fc88a2842b4b1307778defdd, type: 3}
      propertyPath: m_LocalEulerAnglesHint.y
      value: 0
      objectReference: {fileID: 0}
    - target: {fileID: 445620, guid: d39eb7b8fc88a2842b4b1307778defdd, type: 3}
      propertyPath: m_LocalEulerAnglesHint.z
      value: 0
      objectReference: {fileID: 0}
    m_RemovedComponents: []
  m_SourcePrefab: {fileID: 100100000, guid: d39eb7b8fc88a2842b4b1307778defdd, type: 3}
--- !u!4 &1116945663 stripped
Transform:
  m_CorrespondingSourceObject: {fileID: 445620, guid: d39eb7b8fc88a2842b4b1307778defdd,
    type: 3}
  m_PrefabInstance: {fileID: 1116945662}
  m_PrefabAsset: {fileID: 0}
--- !u!1 &1270757444 stripped
GameObject:
  m_CorrespondingSourceObject: {fileID: 8666279557159629546, guid: d6dcffcdfc5ef47d29a65afee199d926,
    type: 3}
  m_PrefabInstance: {fileID: 1070957410}
  m_PrefabAsset: {fileID: 0}
--- !u!114 &1270757453
MonoBehaviour:
  m_ObjectHideFlags: 0
  m_CorrespondingSourceObject: {fileID: 0}
  m_PrefabInstance: {fileID: 0}
  m_PrefabAsset: {fileID: 0}
  m_GameObject: {fileID: 1270757444}
  m_Enabled: 1
  m_EditorHideFlags: 0
  m_Script: {fileID: 11500000, guid: 8c4ab3c3753ae4b4dbad8143bc3e40f9, type: 3}
  m_Name: 
  m_EditorClassIdentifier: 
  AbilityStartFeedbacks: {fileID: 0}
  AbilityStopFeedbacks: {fileID: 0}
  AbilityPermitted: 1
  BlockingMovementStates: 
  BlockingConditionStates: 
  ShakeParameters: {x: 1.5, y: 0.5, z: 1}
  DiveAcceleration: 2
  gasPerDive: 5
  smashDamage: 0
  damageRadius: 0
  directHitMuliplier: 2
  directHitDistance: 0.25
  stunDuration: 1.5
  damageForce: 0
  OneWayPlatformDiveDealy: 0.05
  OneWayPlatformsJumpCollisionOffDuration: 0.25
  InvulnerabilityTime: 1
  DamageMask:
    serializedVersion: 2
    m_Bits: 0
  coolDownTime: 5
--- !u!4 &1332859514 stripped
Transform:
  m_CorrespondingSourceObject: {fileID: 445620, guid: d39eb7b8fc88a2842b4b1307778defdd,
    type: 3}
  m_PrefabInstance: {fileID: 927762674}
  m_PrefabAsset: {fileID: 0}
--- !u!1001 &1415638697
PrefabInstance:
  m_ObjectHideFlags: 0
  serializedVersion: 2
  m_Modification:
    m_TransformParent: {fileID: 2127928157}
    m_Modifications:
    - target: {fileID: 150686, guid: d39eb7b8fc88a2842b4b1307778defdd, type: 3}
      propertyPath: m_Name
      value: Platform700x100 (2)
      objectReference: {fileID: 0}
    - target: {fileID: 445620, guid: d39eb7b8fc88a2842b4b1307778defdd, type: 3}
      propertyPath: m_LocalPosition.x
      value: 9.25
      objectReference: {fileID: 0}
    - target: {fileID: 445620, guid: d39eb7b8fc88a2842b4b1307778defdd, type: 3}
      propertyPath: m_LocalPosition.y
      value: -3.13
      objectReference: {fileID: 0}
    - target: {fileID: 445620, guid: d39eb7b8fc88a2842b4b1307778defdd, type: 3}
      propertyPath: m_LocalPosition.z
      value: 97.44593
      objectReference: {fileID: 0}
    - target: {fileID: 445620, guid: d39eb7b8fc88a2842b4b1307778defdd, type: 3}
      propertyPath: m_LocalRotation.x
      value: 0
      objectReference: {fileID: 0}
    - target: {fileID: 445620, guid: d39eb7b8fc88a2842b4b1307778defdd, type: 3}
      propertyPath: m_LocalRotation.y
      value: 0
      objectReference: {fileID: 0}
    - target: {fileID: 445620, guid: d39eb7b8fc88a2842b4b1307778defdd, type: 3}
      propertyPath: m_LocalRotation.z
      value: 0.7071068
      objectReference: {fileID: 0}
    - target: {fileID: 445620, guid: d39eb7b8fc88a2842b4b1307778defdd, type: 3}
      propertyPath: m_LocalRotation.w
      value: 0.7071068
      objectReference: {fileID: 0}
    - target: {fileID: 445620, guid: d39eb7b8fc88a2842b4b1307778defdd, type: 3}
      propertyPath: m_RootOrder
      value: 2
      objectReference: {fileID: 0}
    - target: {fileID: 445620, guid: d39eb7b8fc88a2842b4b1307778defdd, type: 3}
      propertyPath: m_LocalEulerAnglesHint.x
      value: 0
      objectReference: {fileID: 0}
    - target: {fileID: 445620, guid: d39eb7b8fc88a2842b4b1307778defdd, type: 3}
      propertyPath: m_LocalEulerAnglesHint.y
      value: 0
      objectReference: {fileID: 0}
    - target: {fileID: 445620, guid: d39eb7b8fc88a2842b4b1307778defdd, type: 3}
      propertyPath: m_LocalEulerAnglesHint.z
      value: 90
      objectReference: {fileID: 0}
    m_RemovedComponents: []
  m_SourcePrefab: {fileID: 100100000, guid: d39eb7b8fc88a2842b4b1307778defdd, type: 3}
--- !u!4 &1415638698 stripped
Transform:
  m_CorrespondingSourceObject: {fileID: 445620, guid: d39eb7b8fc88a2842b4b1307778defdd,
    type: 3}
  m_PrefabInstance: {fileID: 1415638697}
  m_PrefabAsset: {fileID: 0}
--- !u!1001 &1558422520
PrefabInstance:
  m_ObjectHideFlags: 0
  serializedVersion: 2
  m_Modification:
    m_TransformParent: {fileID: 2127928157}
    m_Modifications:
    - target: {fileID: 150686, guid: d39eb7b8fc88a2842b4b1307778defdd, type: 3}
      propertyPath: m_Name
      value: Platform700x100
      objectReference: {fileID: 0}
    - target: {fileID: 445620, guid: d39eb7b8fc88a2842b4b1307778defdd, type: 3}
      propertyPath: m_LocalPosition.x
      value: -1.2772465
      objectReference: {fileID: 0}
    - target: {fileID: 445620, guid: d39eb7b8fc88a2842b4b1307778defdd, type: 3}
      propertyPath: m_LocalPosition.y
      value: -3.1642284
      objectReference: {fileID: 0}
    - target: {fileID: 445620, guid: d39eb7b8fc88a2842b4b1307778defdd, type: 3}
      propertyPath: m_LocalPosition.z
      value: 97.44593
      objectReference: {fileID: 0}
    - target: {fileID: 445620, guid: d39eb7b8fc88a2842b4b1307778defdd, type: 3}
      propertyPath: m_LocalRotation.x
      value: -0
      objectReference: {fileID: 0}
    - target: {fileID: 445620, guid: d39eb7b8fc88a2842b4b1307778defdd, type: 3}
      propertyPath: m_LocalRotation.y
      value: -0
      objectReference: {fileID: 0}
    - target: {fileID: 445620, guid: d39eb7b8fc88a2842b4b1307778defdd, type: 3}
      propertyPath: m_LocalRotation.z
      value: -0
      objectReference: {fileID: 0}
    - target: {fileID: 445620, guid: d39eb7b8fc88a2842b4b1307778defdd, type: 3}
      propertyPath: m_LocalRotation.w
      value: 1
      objectReference: {fileID: 0}
    - target: {fileID: 445620, guid: d39eb7b8fc88a2842b4b1307778defdd, type: 3}
      propertyPath: m_RootOrder
      value: 1
      objectReference: {fileID: 0}
    - target: {fileID: 445620, guid: d39eb7b8fc88a2842b4b1307778defdd, type: 3}
      propertyPath: m_LocalEulerAnglesHint.x
      value: 0
      objectReference: {fileID: 0}
    - target: {fileID: 445620, guid: d39eb7b8fc88a2842b4b1307778defdd, type: 3}
      propertyPath: m_LocalEulerAnglesHint.y
      value: 0
      objectReference: {fileID: 0}
    - target: {fileID: 445620, guid: d39eb7b8fc88a2842b4b1307778defdd, type: 3}
      propertyPath: m_LocalEulerAnglesHint.z
      value: 0
      objectReference: {fileID: 0}
    m_RemovedComponents: []
  m_SourcePrefab: {fileID: 100100000, guid: d39eb7b8fc88a2842b4b1307778defdd, type: 3}
--- !u!1001 &1578841117
PrefabInstance:
  m_ObjectHideFlags: 0
  serializedVersion: 2
  m_Modification:
    m_TransformParent: {fileID: 2127928157}
    m_Modifications:
    - target: {fileID: 150686, guid: d39eb7b8fc88a2842b4b1307778defdd, type: 3}
      propertyPath: m_Name
      value: Platform700x100 (1)
      objectReference: {fileID: 0}
    - target: {fileID: 445620, guid: d39eb7b8fc88a2842b4b1307778defdd, type: 3}
      propertyPath: m_LocalPosition.x
      value: 5.26
      objectReference: {fileID: 0}
    - target: {fileID: 445620, guid: d39eb7b8fc88a2842b4b1307778defdd, type: 3}
      propertyPath: m_LocalPosition.y
      value: -2.154
      objectReference: {fileID: 0}
    - target: {fileID: 445620, guid: d39eb7b8fc88a2842b4b1307778defdd, type: 3}
      propertyPath: m_LocalPosition.z
      value: 97.44593
      objectReference: {fileID: 0}
    - target: {fileID: 445620, guid: d39eb7b8fc88a2842b4b1307778defdd, type: 3}
      propertyPath: m_LocalRotation.x
      value: -0
      objectReference: {fileID: 0}
    - target: {fileID: 445620, guid: d39eb7b8fc88a2842b4b1307778defdd, type: 3}
      propertyPath: m_LocalRotation.y
      value: -0
      objectReference: {fileID: 0}
    - target: {fileID: 445620, guid: d39eb7b8fc88a2842b4b1307778defdd, type: 3}
      propertyPath: m_LocalRotation.z
      value: -0
      objectReference: {fileID: 0}
    - target: {fileID: 445620, guid: d39eb7b8fc88a2842b4b1307778defdd, type: 3}
      propertyPath: m_LocalRotation.w
      value: 1
      objectReference: {fileID: 0}
    - target: {fileID: 445620, guid: d39eb7b8fc88a2842b4b1307778defdd, type: 3}
      propertyPath: m_RootOrder
      value: 0
      objectReference: {fileID: 0}
    - target: {fileID: 445620, guid: d39eb7b8fc88a2842b4b1307778defdd, type: 3}
      propertyPath: m_LocalEulerAnglesHint.x
      value: 0
      objectReference: {fileID: 0}
    - target: {fileID: 445620, guid: d39eb7b8fc88a2842b4b1307778defdd, type: 3}
      propertyPath: m_LocalEulerAnglesHint.y
      value: 0
      objectReference: {fileID: 0}
    - target: {fileID: 445620, guid: d39eb7b8fc88a2842b4b1307778defdd, type: 3}
      propertyPath: m_LocalEulerAnglesHint.z
      value: 0
      objectReference: {fileID: 0}
    m_RemovedComponents: []
  m_SourcePrefab: {fileID: 100100000, guid: d39eb7b8fc88a2842b4b1307778defdd, type: 3}
--- !u!1001 &1637818771
PrefabInstance:
  m_ObjectHideFlags: 0
  serializedVersion: 2
  m_Modification:
    m_TransformParent: {fileID: 2127928157}
    m_Modifications:
    - target: {fileID: 150686, guid: d39eb7b8fc88a2842b4b1307778defdd, type: 3}
      propertyPath: m_Name
      value: Platform700x100 (9)
      objectReference: {fileID: 0}
    - target: {fileID: 445620, guid: d39eb7b8fc88a2842b4b1307778defdd, type: 3}
      propertyPath: m_LocalPosition.x
      value: 31.51
      objectReference: {fileID: 0}
    - target: {fileID: 445620, guid: d39eb7b8fc88a2842b4b1307778defdd, type: 3}
      propertyPath: m_LocalPosition.y
      value: -2.13
      objectReference: {fileID: 0}
    - target: {fileID: 445620, guid: d39eb7b8fc88a2842b4b1307778defdd, type: 3}
      propertyPath: m_LocalPosition.z
      value: 97.44593
      objectReference: {fileID: 0}
    - target: {fileID: 445620, guid: d39eb7b8fc88a2842b4b1307778defdd, type: 3}
      propertyPath: m_LocalRotation.x
      value: -0
      objectReference: {fileID: 0}
    - target: {fileID: 445620, guid: d39eb7b8fc88a2842b4b1307778defdd, type: 3}
      propertyPath: m_LocalRotation.y
      value: -0
      objectReference: {fileID: 0}
    - target: {fileID: 445620, guid: d39eb7b8fc88a2842b4b1307778defdd, type: 3}
      propertyPath: m_LocalRotation.z
      value: -0
      objectReference: {fileID: 0}
    - target: {fileID: 445620, guid: d39eb7b8fc88a2842b4b1307778defdd, type: 3}
      propertyPath: m_LocalRotation.w
      value: 1
      objectReference: {fileID: 0}
    - target: {fileID: 445620, guid: d39eb7b8fc88a2842b4b1307778defdd, type: 3}
      propertyPath: m_RootOrder
      value: 9
      objectReference: {fileID: 0}
    - target: {fileID: 445620, guid: d39eb7b8fc88a2842b4b1307778defdd, type: 3}
      propertyPath: m_LocalEulerAnglesHint.x
      value: 0
      objectReference: {fileID: 0}
    - target: {fileID: 445620, guid: d39eb7b8fc88a2842b4b1307778defdd, type: 3}
      propertyPath: m_LocalEulerAnglesHint.y
      value: 0
      objectReference: {fileID: 0}
    - target: {fileID: 445620, guid: d39eb7b8fc88a2842b4b1307778defdd, type: 3}
      propertyPath: m_LocalEulerAnglesHint.z
      value: 0
      objectReference: {fileID: 0}
    m_RemovedComponents: []
  m_SourcePrefab: {fileID: 100100000, guid: d39eb7b8fc88a2842b4b1307778defdd, type: 3}
--- !u!4 &1637818772 stripped
Transform:
  m_CorrespondingSourceObject: {fileID: 445620, guid: d39eb7b8fc88a2842b4b1307778defdd,
    type: 3}
  m_PrefabInstance: {fileID: 1637818771}
  m_PrefabAsset: {fileID: 0}
--- !u!4 &1690069721 stripped
Transform:
  m_CorrespondingSourceObject: {fileID: 445620, guid: d39eb7b8fc88a2842b4b1307778defdd,
    type: 3}
  m_PrefabInstance: {fileID: 225834997}
  m_PrefabAsset: {fileID: 0}
--- !u!1 &1785298461
GameObject:
  m_ObjectHideFlags: 0
  m_CorrespondingSourceObject: {fileID: 0}
  m_PrefabInstance: {fileID: 0}
  m_PrefabAsset: {fileID: 0}
  serializedVersion: 6
  m_Component:
  - component: {fileID: 1785298463}
  - component: {fileID: 1785298462}
  m_Layer: 0
  m_Name: Global Light 2D
  m_TagString: Untagged
  m_Icon: {fileID: 0}
  m_NavMeshLayer: 0
  m_StaticEditorFlags: 0
  m_IsActive: 1
--- !u!114 &1785298462
MonoBehaviour:
  m_ObjectHideFlags: 0
  m_CorrespondingSourceObject: {fileID: 0}
  m_PrefabInstance: {fileID: 0}
  m_PrefabAsset: {fileID: 0}
  m_GameObject: {fileID: 1785298461}
  m_Enabled: 1
  m_EditorHideFlags: 0
  m_Script: {fileID: 11500000, guid: 073797afb82c5a1438f328866b10b3f0, type: 3}
  m_Name: 
  m_EditorClassIdentifier: 
  m_LightType: 4
  m_BlendStyleIndex: 0
  m_FalloffIntensity: 0.5
  m_Color: {r: 1, g: 1, b: 1, a: 1}
  m_Intensity: 1
  m_LightVolumeOpacity: 0
  m_ApplyToSortingLayers: 00000000
  m_LightCookieSprite: {fileID: 0}
  m_UseNormalMap: 0
  m_LightOrder: 0
  m_AlphaBlendOnOverlap: 0
  m_ShadowIntensity: 0
  m_ShadowVolumeIntensity: 0
  m_PointLightInnerAngle: 360
  m_PointLightOuterAngle: 360
  m_PointLightInnerRadius: 0
  m_PointLightOuterRadius: 1
  m_PointLightDistance: 3
  m_PointLightQuality: 1
  m_ShapeLightParametricSides: 5
  m_ShapeLightParametricAngleOffset: 0
  m_ShapeLightParametricRadius: 1
  m_ShapeLightFalloffSize: 0.5
  m_ShapeLightFalloffOffset: {x: 0, y: 0}
  m_ShapePath:
  - {x: -0.5, y: -0.5, z: 0}
  - {x: 0.5, y: -0.5, z: 0}
  - {x: 0.5, y: 0.5, z: 0}
  - {x: -0.5, y: 0.5, z: 0}
--- !u!4 &1785298463
Transform:
  m_ObjectHideFlags: 0
  m_CorrespondingSourceObject: {fileID: 0}
  m_PrefabInstance: {fileID: 0}
  m_PrefabAsset: {fileID: 0}
  m_GameObject: {fileID: 1785298461}
  m_LocalRotation: {x: 0, y: 0, z: 0, w: 1}
  m_LocalPosition: {x: 0, y: 0, z: 0}
  m_LocalScale: {x: 1, y: 1, z: 1}
  m_Children: []
  m_Father: {fileID: 0}
  m_RootOrder: 4
  m_LocalEulerAnglesHint: {x: 0, y: 0, z: 0}
--- !u!1001 &1806375195
PrefabInstance:
  m_ObjectHideFlags: 0
  serializedVersion: 2
  m_Modification:
    m_TransformParent: {fileID: 0}
    m_Modifications:
    - target: {fileID: 5728172138518975696, guid: 2d242c11c461e44e0ae8a649a003d0ec,
        type: 3}
      propertyPath: m_LocalPosition.x
      value: 0
      objectReference: {fileID: 0}
    - target: {fileID: 5728172138518975696, guid: 2d242c11c461e44e0ae8a649a003d0ec,
        type: 3}
      propertyPath: m_LocalPosition.y
      value: 0
      objectReference: {fileID: 0}
    - target: {fileID: 5728172138518975696, guid: 2d242c11c461e44e0ae8a649a003d0ec,
        type: 3}
      propertyPath: m_LocalPosition.z
      value: 0
      objectReference: {fileID: 0}
    - target: {fileID: 5728172138518975696, guid: 2d242c11c461e44e0ae8a649a003d0ec,
        type: 3}
      propertyPath: m_LocalRotation.x
      value: 0
      objectReference: {fileID: 0}
    - target: {fileID: 5728172138518975696, guid: 2d242c11c461e44e0ae8a649a003d0ec,
        type: 3}
      propertyPath: m_LocalRotation.y
      value: 0
      objectReference: {fileID: 0}
    - target: {fileID: 5728172138518975696, guid: 2d242c11c461e44e0ae8a649a003d0ec,
        type: 3}
      propertyPath: m_LocalRotation.z
      value: 0
      objectReference: {fileID: 0}
    - target: {fileID: 5728172138518975696, guid: 2d242c11c461e44e0ae8a649a003d0ec,
        type: 3}
      propertyPath: m_LocalRotation.w
      value: 1
      objectReference: {fileID: 0}
    - target: {fileID: 5728172138518975696, guid: 2d242c11c461e44e0ae8a649a003d0ec,
        type: 3}
      propertyPath: m_RootOrder
      value: 1
      objectReference: {fileID: 0}
    - target: {fileID: 5728172138518975696, guid: 2d242c11c461e44e0ae8a649a003d0ec,
        type: 3}
      propertyPath: m_LocalEulerAnglesHint.x
      value: 0
      objectReference: {fileID: 0}
    - target: {fileID: 5728172138518975696, guid: 2d242c11c461e44e0ae8a649a003d0ec,
        type: 3}
      propertyPath: m_LocalEulerAnglesHint.y
      value: 0
      objectReference: {fileID: 0}
    - target: {fileID: 5728172138518975696, guid: 2d242c11c461e44e0ae8a649a003d0ec,
        type: 3}
      propertyPath: m_LocalEulerAnglesHint.z
      value: 0
      objectReference: {fileID: 0}
    - target: {fileID: 5728172138518975698, guid: 2d242c11c461e44e0ae8a649a003d0ec,
        type: 3}
      propertyPath: m_Name
      value: SceneData
      objectReference: {fileID: 0}
    m_RemovedComponents: []
  m_SourcePrefab: {fileID: 100100000, guid: 2d242c11c461e44e0ae8a649a003d0ec, type: 3}
--- !u!1001 &1836695700
PrefabInstance:
  m_ObjectHideFlags: 0
  serializedVersion: 2
  m_Modification:
    m_TransformParent: {fileID: 2127928157}
    m_Modifications:
    - target: {fileID: 150686, guid: d39eb7b8fc88a2842b4b1307778defdd, type: 3}
      propertyPath: m_Name
      value: Platform700x100 (12)
      objectReference: {fileID: 0}
    - target: {fileID: 445620, guid: d39eb7b8fc88a2842b4b1307778defdd, type: 3}
      propertyPath: m_LocalPosition.x
      value: 57.7
      objectReference: {fileID: 0}
    - target: {fileID: 445620, guid: d39eb7b8fc88a2842b4b1307778defdd, type: 3}
      propertyPath: m_LocalPosition.y
      value: -2.13
      objectReference: {fileID: 0}
    - target: {fileID: 445620, guid: d39eb7b8fc88a2842b4b1307778defdd, type: 3}
      propertyPath: m_LocalPosition.z
      value: 97.44593
      objectReference: {fileID: 0}
    - target: {fileID: 445620, guid: d39eb7b8fc88a2842b4b1307778defdd, type: 3}
      propertyPath: m_LocalRotation.x
      value: -0
      objectReference: {fileID: 0}
    - target: {fileID: 445620, guid: d39eb7b8fc88a2842b4b1307778defdd, type: 3}
      propertyPath: m_LocalRotation.y
      value: -0
      objectReference: {fileID: 0}
    - target: {fileID: 445620, guid: d39eb7b8fc88a2842b4b1307778defdd, type: 3}
      propertyPath: m_LocalRotation.z
      value: -0
      objectReference: {fileID: 0}
    - target: {fileID: 445620, guid: d39eb7b8fc88a2842b4b1307778defdd, type: 3}
      propertyPath: m_LocalRotation.w
      value: 1
      objectReference: {fileID: 0}
    - target: {fileID: 445620, guid: d39eb7b8fc88a2842b4b1307778defdd, type: 3}
      propertyPath: m_RootOrder
      value: 12
      objectReference: {fileID: 0}
    - target: {fileID: 445620, guid: d39eb7b8fc88a2842b4b1307778defdd, type: 3}
      propertyPath: m_LocalEulerAnglesHint.x
      value: 0
      objectReference: {fileID: 0}
    - target: {fileID: 445620, guid: d39eb7b8fc88a2842b4b1307778defdd, type: 3}
      propertyPath: m_LocalEulerAnglesHint.y
      value: 0
      objectReference: {fileID: 0}
    - target: {fileID: 445620, guid: d39eb7b8fc88a2842b4b1307778defdd, type: 3}
      propertyPath: m_LocalEulerAnglesHint.z
      value: 0
      objectReference: {fileID: 0}
    m_RemovedComponents: []
  m_SourcePrefab: {fileID: 100100000, guid: d39eb7b8fc88a2842b4b1307778defdd, type: 3}
--- !u!4 &1836695701 stripped
Transform:
  m_CorrespondingSourceObject: {fileID: 445620, guid: d39eb7b8fc88a2842b4b1307778defdd,
    type: 3}
  m_PrefabInstance: {fileID: 1836695700}
  m_PrefabAsset: {fileID: 0}
--- !u!114 &1852838794 stripped
MonoBehaviour:
  m_CorrespondingSourceObject: {fileID: 787470000906386367, guid: 0a97df5fe3f2f424da39351ebb545077,
    type: 3}
  m_PrefabInstance: {fileID: 196612663020882340}
  m_PrefabAsset: {fileID: 0}
  m_GameObject: {fileID: 0}
  m_Enabled: 1
  m_EditorHideFlags: 0
  m_Script: {fileID: 11500000, guid: 5f7201a12d95ffc409449d95f23cf332, type: 3}
  m_Name: 
  m_EditorClassIdentifier: 
--- !u!1001 &1993350961
PrefabInstance:
  m_ObjectHideFlags: 0
  serializedVersion: 2
  m_Modification:
    m_TransformParent: {fileID: 2127928157}
    m_Modifications:
    - target: {fileID: 150686, guid: d39eb7b8fc88a2842b4b1307778defdd, type: 3}
      propertyPath: m_Name
      value: Platform700x100 (10)
      objectReference: {fileID: 0}
    - target: {fileID: 445620, guid: d39eb7b8fc88a2842b4b1307778defdd, type: 3}
      propertyPath: m_LocalPosition.x
      value: 43.97
      objectReference: {fileID: 0}
    - target: {fileID: 445620, guid: d39eb7b8fc88a2842b4b1307778defdd, type: 3}
      propertyPath: m_LocalPosition.y
      value: -2.13
      objectReference: {fileID: 0}
    - target: {fileID: 445620, guid: d39eb7b8fc88a2842b4b1307778defdd, type: 3}
      propertyPath: m_LocalPosition.z
      value: 97.44593
      objectReference: {fileID: 0}
    - target: {fileID: 445620, guid: d39eb7b8fc88a2842b4b1307778defdd, type: 3}
      propertyPath: m_LocalRotation.x
      value: -0
      objectReference: {fileID: 0}
    - target: {fileID: 445620, guid: d39eb7b8fc88a2842b4b1307778defdd, type: 3}
      propertyPath: m_LocalRotation.y
      value: -0
      objectReference: {fileID: 0}
    - target: {fileID: 445620, guid: d39eb7b8fc88a2842b4b1307778defdd, type: 3}
      propertyPath: m_LocalRotation.z
      value: -0
      objectReference: {fileID: 0}
    - target: {fileID: 445620, guid: d39eb7b8fc88a2842b4b1307778defdd, type: 3}
      propertyPath: m_LocalRotation.w
      value: 1
      objectReference: {fileID: 0}
    - target: {fileID: 445620, guid: d39eb7b8fc88a2842b4b1307778defdd, type: 3}
      propertyPath: m_RootOrder
      value: 10
      objectReference: {fileID: 0}
    - target: {fileID: 445620, guid: d39eb7b8fc88a2842b4b1307778defdd, type: 3}
      propertyPath: m_LocalEulerAnglesHint.x
      value: 0
      objectReference: {fileID: 0}
    - target: {fileID: 445620, guid: d39eb7b8fc88a2842b4b1307778defdd, type: 3}
      propertyPath: m_LocalEulerAnglesHint.y
      value: 0
      objectReference: {fileID: 0}
    - target: {fileID: 445620, guid: d39eb7b8fc88a2842b4b1307778defdd, type: 3}
      propertyPath: m_LocalEulerAnglesHint.z
      value: 0
      objectReference: {fileID: 0}
    m_RemovedComponents: []
  m_SourcePrefab: {fileID: 100100000, guid: d39eb7b8fc88a2842b4b1307778defdd, type: 3}
--- !u!4 &1993350962 stripped
Transform:
  m_CorrespondingSourceObject: {fileID: 445620, guid: d39eb7b8fc88a2842b4b1307778defdd,
    type: 3}
  m_PrefabInstance: {fileID: 1993350961}
  m_PrefabAsset: {fileID: 0}
--- !u!1 &2127928156
GameObject:
  m_ObjectHideFlags: 0
  m_CorrespondingSourceObject: {fileID: 0}
  m_PrefabInstance: {fileID: 0}
  m_PrefabAsset: {fileID: 0}
  serializedVersion: 6
  m_Component:
  - component: {fileID: 2127928157}
  m_Layer: 0
  m_Name: Platforms
  m_TagString: Untagged
  m_Icon: {fileID: 0}
  m_NavMeshLayer: 0
  m_StaticEditorFlags: 0
  m_IsActive: 1
--- !u!4 &2127928157
Transform:
  m_ObjectHideFlags: 0
  m_CorrespondingSourceObject: {fileID: 0}
  m_PrefabInstance: {fileID: 0}
  m_PrefabAsset: {fileID: 0}
  m_GameObject: {fileID: 2127928156}
  m_LocalRotation: {x: 0, y: 0, z: 0, w: 1}
  m_LocalPosition: {x: 0, y: 0, z: 0}
  m_LocalScale: {x: 1, y: 1, z: 1}
  m_Children:
  - {fileID: 514063622}
  - {fileID: 293153950}
  - {fileID: 1415638698}
  - {fileID: 314787080}
  - {fileID: 372368912}
  - {fileID: 107572423}
  - {fileID: 1690069721}
  - {fileID: 1332859514}
  - {fileID: 908960786}
  - {fileID: 1637818772}
  - {fileID: 1993350962}
  - {fileID: 1116945663}
  - {fileID: 1836695701}
  m_Father: {fileID: 970707295}
  m_RootOrder: 0
  m_LocalEulerAnglesHint: {x: 0, y: 0, z: 0}
--- !u!1001 &196612663020882340
PrefabInstance:
  m_ObjectHideFlags: 0
  serializedVersion: 2
  m_Modification:
    m_TransformParent: {fileID: 0}
    m_Modifications:
    - target: {fileID: 1652505543962532123, guid: 0a97df5fe3f2f424da39351ebb545077,
        type: 3}
      propertyPath: m_AnchoredPosition.y
      value: -28.000122
      objectReference: {fileID: 0}
    - target: {fileID: 5870717381272716747, guid: 0a97df5fe3f2f424da39351ebb545077,
        type: 3}
      propertyPath: m_LocalPosition.x
      value: 0
      objectReference: {fileID: 0}
    - target: {fileID: 5870717381272716747, guid: 0a97df5fe3f2f424da39351ebb545077,
        type: 3}
      propertyPath: m_LocalPosition.y
      value: 0
      objectReference: {fileID: 0}
    - target: {fileID: 5870717381272716747, guid: 0a97df5fe3f2f424da39351ebb545077,
        type: 3}
      propertyPath: m_LocalPosition.z
      value: 0
      objectReference: {fileID: 0}
    - target: {fileID: 5870717381272716747, guid: 0a97df5fe3f2f424da39351ebb545077,
        type: 3}
      propertyPath: m_LocalRotation.x
      value: 0
      objectReference: {fileID: 0}
    - target: {fileID: 5870717381272716747, guid: 0a97df5fe3f2f424da39351ebb545077,
        type: 3}
      propertyPath: m_LocalRotation.y
      value: 0
      objectReference: {fileID: 0}
    - target: {fileID: 5870717381272716747, guid: 0a97df5fe3f2f424da39351ebb545077,
        type: 3}
      propertyPath: m_LocalRotation.z
      value: 0
      objectReference: {fileID: 0}
    - target: {fileID: 5870717381272716747, guid: 0a97df5fe3f2f424da39351ebb545077,
        type: 3}
      propertyPath: m_LocalRotation.w
      value: 1
      objectReference: {fileID: 0}
    - target: {fileID: 5870717381272716747, guid: 0a97df5fe3f2f424da39351ebb545077,
        type: 3}
      propertyPath: m_RootOrder
      value: 0
      objectReference: {fileID: 0}
    - target: {fileID: 5870717381272716747, guid: 0a97df5fe3f2f424da39351ebb545077,
        type: 3}
      propertyPath: m_LocalEulerAnglesHint.x
      value: 0
      objectReference: {fileID: 0}
    - target: {fileID: 5870717381272716747, guid: 0a97df5fe3f2f424da39351ebb545077,
        type: 3}
      propertyPath: m_LocalEulerAnglesHint.y
      value: 0
      objectReference: {fileID: 0}
    - target: {fileID: 5870717381272716747, guid: 0a97df5fe3f2f424da39351ebb545077,
        type: 3}
      propertyPath: m_LocalEulerAnglesHint.z
      value: 0
      objectReference: {fileID: 0}
    - target: {fileID: 5870717381272716751, guid: 0a97df5fe3f2f424da39351ebb545077,
        type: 3}
      propertyPath: m_Name
      value: GUI Camera
      objectReference: {fileID: 0}
    m_RemovedComponents: []
  m_SourcePrefab: {fileID: 100100000, guid: 0a97df5fe3f2f424da39351ebb545077, type: 3}
